id,trace,policy,avg,max
1,SDSC-BLU,lqf,4.409,468.0
2,SDSC-BLU,lqf,2.304,179.97
3,SDSC-BLU,lqf,6.846,634.813
4,SDSC-BLU,lqf,6.023,596.167
5,SDSC-BLU,lqf,3.66,811.583
6,SDSC-BLU,lqf,3.494,199.684
7,SDSC-BLU,lqf,1.063,59.786
8,SDSC-BLU,lqf,1.324,150.45
9,SDSC-BLU,lqf,2.732,192.148
10,SDSC-BLU,lqf,6.506,784.667
11,SDSC-BLU,lqf,2.73,172.473
12,SDSC-BLU,lqf,3.669,662.548
13,SDSC-BLU,lqf,2.3,245.821
14,SDSC-BLU,lqf,3.62,317.217
15,SDSC-BLU,lqf,3.75,480.967
16,SDSC-BLU,lqf,1.241,86.895
17,SDSC-BLU,lqf,3.524,372.222
18,SDSC-BLU,lqf,2.387,148.993
19,SDSC-BLU,lqf,3.086,287.746
20,SDSC-BLU,lqf,1.957,364.495
21,SDSC-BLU,lqf,3.521,305.627
22,SDSC-BLU,lqf,4.984,512.546
23,SDSC-BLU,lqf,3.401,593.031
24,SDSC-BLU,lqf,5.27,280.283
25,SDSC-BLU,lqf,6.052,201.379
26,SDSC-BLU,lqf,21.447,552.74
27,SDSC-BLU,lqf,5.487,187.219
28,SDSC-BLU,lqf,5.65,127.767
29,SDSC-BLU,lqf,4.672,437.556
30,SDSC-BLU,lqf,1.109,48.312
31,SDSC-BLU,lqf,3.281,190.15
32,SDSC-BLU,lqf,3.357,277.75
33,SDSC-BLU,lqf,1.257,20.097
34,SDSC-BLU,lqf,2.145,111.061
35,SDSC-BLU,lqf,1.314,61.592
36,SDSC-BLU,lqf,5.368,475.865
37,SDSC-BLU,lqf,1.387,113.989
38,SDSC-BLU,lqf,5.203,328.151
39,SDSC-BLU,lqf,6.868,724.2
40,SDSC-BLU,lqf,1.97,158.333
41,SDSC-BLU,lqf,1.879,242.183
42,SDSC-BLU,lqf,1.573,244.978
43,SDSC-BLU,lqf,1.627,88.983
44,SDSC-BLU,lqf,2.704,406.41
45,SDSC-BLU,lqf,2.709,145.45
46,SDSC-BLU,lqf,8.806,625.823
47,SDSC-BLU,lqf,7.024,555.987
48,SDSC-BLU,lqf,10.429,580.933
49,SDSC-BLU,lqf,2.04,81.933
50,SDSC-BLU,lqf,2.05,164.447
51,SDSC-BLU,lqf,2.005,375.792
52,SDSC-BLU,lqf,3.285,278.133
53,SDSC-BLU,lqf,1.09,57.087
54,SDSC-BLU,lqf,1.041,20.016
55,SDSC-BLU,lqf,7.555,735.283
56,SDSC-BLU,lqf,2.394,261.483
57,SDSC-BLU,lqf,6.688,525.033
58,SDSC-BLU,lqf,5.821,555.933
59,SDSC-BLU,lqf,4.097,304.967
60,SDSC-BLU,lqf,2.575,369.55
61,SDSC-BLU,lqf,1.389,70.117
62,SDSC-BLU,lqf,7.73,2590.554
63,SDSC-BLU,lqf,11.42,1385.711
64,SDSC-BLU,lqf,4.371,472.938
65,SDSC-BLU,lqf,5.898,527.4
66,SDSC-BLU,lqf,2.567,428.567
67,SDSC-BLU,lqf,3.732,293.493
68,SDSC-BLU,lqf,2.831,403.083
69,SDSC-BLU,lqf,3.571,1619.175
70,SDSC-BLU,lqf,6.227,422.417
71,SDSC-BLU,lqf,4.389,1150.183
72,SDSC-BLU,lqf,2.027,601.373
73,SDSC-BLU,lqf,3.873,693.4
74,SDSC-BLU,lqf,4.421,406.167
75,SDSC-BLU,lqf,1.718,138.959
76,SDSC-BLU,lqf,5.941,254.549
77,SDSC-BLU,lqf,2.221,208.875
78,SDSC-BLU,lqf,2.5,138.85
79,SDSC-BLU,lqf,6.261,497.41
80,SDSC-BLU,lqf,1.669,200.484
81,SDSC-BLU,lqf,3.48,742.42
82,SDSC-BLU,lqf,6.675,1211.508
83,SDSC-BLU,lqf,4.461,545.75
84,SDSC-BLU,lqf,8.372,2033.239
85,SDSC-BLU,lqf,5.869,346.145
86,SDSC-BLU,lqf,24.514,631.55
87,SDSC-BLU,lqf,3.236,902.344
88,SDSC-BLU,lqf,2.704,213.25
89,SDSC-BLU,lqf,16.534,1300.617
90,SDSC-BLU,lqf,4.037,912.633
91,SDSC-BLU,lqf,1.224,77.137
92,SDSC-BLU,lqf,1.12,30.517
93,SDSC-BLU,lqf,22.469,1363.5
94,SDSC-BLU,lqf,8.27,2122.433
95,SDSC-BLU,lqf,7.194,451.873
96,SDSC-BLU,lqf,12.817,664.45
97,SDSC-BLU,lqf,11.157,885.85
98,SDSC-BLU,lqf,5.523,941.375
99,SDSC-BLU,lqf,13.409,1850.718
100,SDSC-BLU,lqf,8.187,764.867
1,SDSC-BLU,sqf,5.626,834.283
2,SDSC-BLU,sqf,2.309,233.864
3,SDSC-BLU,sqf,2.73,208.374
4,SDSC-BLU,sqf,4.566,839.483
5,SDSC-BLU,sqf,3.499,1865.492
6,SDSC-BLU,sqf,2.997,252.217
7,SDSC-BLU,sqf,1.115,127.946
8,SDSC-BLU,sqf,1.212,105.588
9,SDSC-BLU,sqf,2.48,192.148
10,SDSC-BLU,sqf,6.78,760.667
11,SDSC-BLU,sqf,2.093,249.085
12,SDSC-BLU,sqf,2.738,287.619
13,SDSC-BLU,sqf,3.901,580.516
14,SDSC-BLU,sqf,2.542,346.267
15,SDSC-BLU,sqf,1.58,65.493
16,SDSC-BLU,sqf,1.129,58.343
17,SDSC-BLU,sqf,2.425,133.257
18,SDSC-BLU,sqf,1.912,141.455
19,SDSC-BLU,sqf,2.272,106.879
20,SDSC-BLU,sqf,1.303,57.278
21,SDSC-BLU,sqf,7.614,1438.158
22,SDSC-BLU,sqf,5.949,1782.154
23,SDSC-BLU,sqf,3.764,632.057
24,SDSC-BLU,sqf,3.645,812.945
25,SDSC-BLU,sqf,2.61,84.78
26,SDSC-BLU,sqf,6.559,1235.519
27,SDSC-BLU,sqf,3.652,221.565
28,SDSC-BLU,sqf,3.922,101.786
29,SDSC-BLU,sqf,3.675,1153.45
30,SDSC-BLU,sqf,1.103,49.363
31,SDSC-BLU,sqf,5.343,233.379
32,SDSC-BLU,sqf,3.296,277.75
33,SDSC-BLU,sqf,1.235,20.097
34,SDSC-BLU,sqf,1.757,135.256
35,SDSC-BLU,sqf,1.433,184.354
36,SDSC-BLU,sqf,10.109,2455.425
37,SDSC-BLU,sqf,1.343,98.983
38,SDSC-BLU,sqf,6.223,504.192
39,SDSC-BLU,sqf,13.988,1939.419
40,SDSC-BLU,sqf,1.494,158.333
41,SDSC-BLU,sqf,2.735,1850.816
42,SDSC-BLU,sqf,1.802,264.351
43,SDSC-BLU,sqf,1.454,83.433
44,SDSC-BLU,sqf,4.354,1346.885
45,SDSC-BLU,sqf,2.046,94.0
46,SDSC-BLU,sqf,6.72,1128.083
47,SDSC-BLU,sqf,4.515,377.841
48,SDSC-BLU,sqf,7.235,1083.864
49,SDSC-BLU,sqf,1.864,126.567
50,SDSC-BLU,sqf,3.551,430.6
51,SDSC-BLU,sqf,1.764,413.616
52,SDSC-BLU,sqf,4.699,749.567
53,SDSC-BLU,sqf,1.088,57.087
54,SDSC-BLU,sqf,1.124,148.778
55,SDSC-BLU,sqf,2.109,378.883
56,SDSC-BLU,sqf,2.569,1854.683
57,SDSC-BLU,sqf,2.549,345.056
58,SDSC-BLU,sqf,1.925,286.598
59,SDSC-BLU,sqf,5.345,1796.026
60,SDSC-BLU,sqf,2.059,413.892
61,SDSC-BLU,sqf,1.283,138.383
62,SDSC-BLU,sqf,4.996,426.55
63,SDSC-BLU,sqf,11.737,1385.711
64,SDSC-BLU,sqf,4.051,692.385
65,SDSC-BLU,sqf,5.525,658.817
66,SDSC-BLU,sqf,2.018,235.043
67,SDSC-BLU,sqf,4.273,364.875
68,SDSC-BLU,sqf,5.77,545.333
69,SDSC-BLU,sqf,3.328,1669.667
70,SDSC-BLU,sqf,3.817,1325.759
71,SDSC-BLU,sqf,4.289,858.383
72,SDSC-BLU,sqf,1.926,633.68
73,SDSC-BLU,sqf,5.457,1205.075
74,SDSC-BLU,sqf,1.941,276.361
75,SDSC-BLU,sqf,1.644,89.797
76,SDSC-BLU,sqf,3.636,1421.044
77,SDSC-BLU,sqf,3.401,1071.194
78,SDSC-BLU,sqf,1.653,290.372
79,SDSC-BLU,sqf,6.425,2893.041
80,SDSC-BLU,sqf,1.605,147.9
81,SDSC-BLU,sqf,3.011,756.101
82,SDSC-BLU,sqf,9.128,4409.569
83,SDSC-BLU,sqf,3.796,1586.632
84,SDSC-BLU,sqf,3.024,713.612
85,SDSC-BLU,sqf,2.972,435.383
86,SDSC-BLU,sqf,5.069,2956.446
87,SDSC-BLU,sqf,2.847,610.587
88,SDSC-BLU,sqf,1.499,86.366
89,SDSC-BLU,sqf,18.715,3915.817
90,SDSC-BLU,sqf,1.915,317.388
91,SDSC-BLU,sqf,1.282,82.343
92,SDSC-BLU,sqf,1.069,17.278
93,SDSC-BLU,sqf,18.701,2972.9
94,SDSC-BLU,sqf,8.872,2270.258
95,SDSC-BLU,sqf,5.115,1337.717
96,SDSC-BLU,sqf,7.4,1881.417
97,SDSC-BLU,sqf,4.447,682.498
98,SDSC-BLU,sqf,4.78,1375.196
99,SDSC-BLU,sqf,7.77,2300.704
100,SDSC-BLU,sqf,6.143,420.85
1,SDSC-BLU,lpf,5.998,833.117
2,SDSC-BLU,lpf,2.479,233.864
3,SDSC-BLU,lpf,7.723,852.272
4,SDSC-BLU,lpf,4.788,551.234
5,SDSC-BLU,lpf,3.888,1865.492
6,SDSC-BLU,lpf,9.745,434.017
7,SDSC-BLU,lpf,1.117,127.946
8,SDSC-BLU,lpf,1.209,105.588
9,SDSC-BLU,lpf,2.685,192.148
10,SDSC-BLU,lpf,6.569,643.022
11,SDSC-BLU,lpf,3.481,190.194
12,SDSC-BLU,lpf,3.807,513.39
13,SDSC-BLU,lpf,3.683,518.862
14,SDSC-BLU,lpf,3.539,497.406
15,SDSC-BLU,lpf,2.012,424.323
16,SDSC-BLU,lpf,1.241,86.895
17,SDSC-BLU,lpf,3.488,373.302
18,SDSC-BLU,lpf,2.118,138.815
19,SDSC-BLU,lpf,1.564,136.258
20,SDSC-BLU,lpf,1.318,57.278
21,SDSC-BLU,lpf,10.041,1435.653
22,SDSC-BLU,lpf,8.238,1754.569
23,SDSC-BLU,lpf,5.256,649.773
24,SDSC-BLU,lpf,5.221,317.315
25,SDSC-BLU,lpf,2.992,200.879
26,SDSC-BLU,lpf,11.728,1254.883
27,SDSC-BLU,lpf,5.574,389.754
28,SDSC-BLU,lpf,6.912,228.812
29,SDSC-BLU,lpf,3.768,1153.45
30,SDSC-BLU,lpf,1.196,73.0
31,SDSC-BLU,lpf,4.003,149.561
32,SDSC-BLU,lpf,3.087,277.75
33,SDSC-BLU,lpf,1.248,20.097
34,SDSC-BLU,lpf,1.931,149.22
35,SDSC-BLU,lpf,1.605,215.68
36,SDSC-BLU,lpf,12.03,2455.425
37,SDSC-BLU,lpf,1.59,350.424
38,SDSC-BLU,lpf,7.784,461.438
39,SDSC-BLU,lpf,14.813,1939.419
40,SDSC-BLU,lpf,1.671,191.725
41,SDSC-BLU,lpf,3.08,1850.816
42,SDSC-BLU,lpf,1.85,244.978
43,SDSC-BLU,lpf,1.565,97.883
44,SDSC-BLU,lpf,3.932,1113.197
45,SDSC-BLU,lpf,3.04,200.617
46,SDSC-BLU,lpf,6.21,642.565
47,SDSC-BLU,lpf,7.335,652.567
48,SDSC-BLU,lpf,7.394,1083.864
49,SDSC-BLU,lpf,1.934,129.8
50,SDSC-BLU,lpf,5.016,676.333
51,SDSC-BLU,lpf,1.811,413.616
52,SDSC-BLU,lpf,5.595,953.45
53,SDSC-BLU,lpf,1.088,57.087
54,SDSC-BLU,lpf,1.124,148.778
55,SDSC-BLU,lpf,5.897,475.05
56,SDSC-BLU,lpf,3.414,1854.683
57,SDSC-BLU,lpf,3.854,345.056
58,SDSC-BLU,lpf,4.852,670.644
59,SDSC-BLU,lpf,5.767,1015.421
60,SDSC-BLU,lpf,2.883,399.635
61,SDSC-BLU,lpf,1.273,48.919
62,SDSC-BLU,lpf,10.46,2590.554
63,SDSC-BLU,lpf,17.077,1385.711
64,SDSC-BLU,lpf,5.987,713.815
65,SDSC-BLU,lpf,11.5,876.767
66,SDSC-BLU,lpf,2.535,517.233
67,SDSC-BLU,lpf,5.012,339.458
68,SDSC-BLU,lpf,4.2,548.633
69,SDSC-BLU,lpf,3.94,2151.0
70,SDSC-BLU,lpf,4.724,1325.759
71,SDSC-BLU,lpf,16.701,1311.2
72,SDSC-BLU,lpf,1.957,633.68
73,SDSC-BLU,lpf,7.07,2224.875
74,SDSC-BLU,lpf,4.993,401.049
75,SDSC-BLU,lpf,1.66,89.797
76,SDSC-BLU,lpf,5.448,1345.279
77,SDSC-BLU,lpf,4.44,1071.194
78,SDSC-BLU,lpf,1.71,159.739
79,SDSC-BLU,lpf,5.136,1269.11
80,SDSC-BLU,lpf,1.523,140.167
81,SDSC-BLU,lpf,4.782,1174.493
82,SDSC-BLU,lpf,8.595,2547.892
83,SDSC-BLU,lpf,3.825,1130.765
84,SDSC-BLU,lpf,7.649,2175.493
85,SDSC-BLU,lpf,3.414,826.3
86,SDSC-BLU,lpf,6.893,1057.877
87,SDSC-BLU,lpf,7.191,615.599
88,SDSC-BLU,lpf,1.96,84.967
89,SDSC-BLU,lpf,40.758,4587.45
90,SDSC-BLU,lpf,4.798,545.067
91,SDSC-BLU,lpf,1.224,77.137
92,SDSC-BLU,lpf,1.114,16.767
93,SDSC-BLU,lpf,12.36,1005.479
94,SDSC-BLU,lpf,7.003,2451.0
95,SDSC-BLU,lpf,6.848,1035.833
96,SDSC-BLU,lpf,17.379,1954.7
97,SDSC-BLU,lpf,13.048,647.267
98,SDSC-BLU,lpf,5.289,1370.259
99,SDSC-BLU,lpf,14.383,2300.704
100,SDSC-BLU,lpf,7.468,307.317
1,SDSC-BLU,spf,3.935,390.733
2,SDSC-BLU,spf,2.291,179.97
3,SDSC-BLU,spf,3.317,326.969
4,SDSC-BLU,spf,4.326,893.25
5,SDSC-BLU,spf,3.26,599.116
6,SDSC-BLU,spf,1.676,98.1
7,SDSC-BLU,spf,1.062,59.786
8,SDSC-BLU,spf,1.314,150.45
9,SDSC-BLU,spf,2.627,374.55
10,SDSC-BLU,spf,3.096,241.233
11,SDSC-BLU,spf,2.132,121.65
12,SDSC-BLU,spf,2.428,210.178
13,SDSC-BLU,spf,4.178,1763.943
14,SDSC-BLU,spf,2.019,166.418
15,SDSC-BLU,spf,2.167,136.5
16,SDSC-BLU,spf,1.129,58.343
17,SDSC-BLU,spf,1.89,124.717
18,SDSC-BLU,spf,2.147,145.394
19,SDSC-BLU,spf,2.266,206.571
20,SDSC-BLU,spf,1.304,57.278
21,SDSC-BLU,spf,2.546,175.714
22,SDSC-BLU,spf,4.23,827.892
23,SDSC-BLU,spf,3.053,539.984
24,SDSC-BLU,spf,2.945,769.165
25,SDSC-BLU,spf,3.394,207.809
26,SDSC-BLU,spf,4.571,283.0
27,SDSC-BLU,spf,3.158,183.329
28,SDSC-BLU,spf,4.215,101.446
29,SDSC-BLU,spf,2.04,198.208
30,SDSC-BLU,spf,1.123,48.312
31,SDSC-BLU,spf,3.107,103.809
32,SDSC-BLU,spf,2.893,277.75
33,SDSC-BLU,spf,1.234,20.097
34,SDSC-BLU,spf,1.622,144.11
35,SDSC-BLU,spf,1.22,61.592
36,SDSC-BLU,spf,3.836,475.865
37,SDSC-BLU,spf,1.348,98.983
38,SDSC-BLU,spf,5.549,496.452
39,SDSC-BLU,spf,7.872,771.316
40,SDSC-BLU,spf,1.574,158.333
41,SDSC-BLU,spf,2.556,740.317
42,SDSC-BLU,spf,1.558,270.321
43,SDSC-BLU,spf,1.501,82.833
44,SDSC-BLU,spf,3.792,989.525
45,SDSC-BLU,spf,1.583,109.938
46,SDSC-BLU,spf,4.733,1407.706
47,SDSC-BLU,spf,3.026,568.5
48,SDSC-BLU,spf,7.213,497.317
49,SDSC-BLU,spf,1.243,48.392
50,SDSC-BLU,spf,1.806,276.767
51,SDSC-BLU,spf,1.795,210.818
52,SDSC-BLU,spf,2.823,264.609
53,SDSC-BLU,spf,1.09,57.087
54,SDSC-BLU,spf,1.041,20.016
55,SDSC-BLU,spf,2.317,571.933
56,SDSC-BLU,spf,1.773,261.483
57,SDSC-BLU,spf,1.657,107.167
58,SDSC-BLU,spf,2.183,127.915
59,SDSC-BLU,spf,3.867,424.933
60,SDSC-BLU,spf,2.682,618.3
61,SDSC-BLU,spf,1.246,138.383
62,SDSC-BLU,spf,3.099,320.15
63,SDSC-BLU,spf,11.501,1385.711
64,SDSC-BLU,spf,4.585,461.462
65,SDSC-BLU,spf,4.465,1234.446
66,SDSC-BLU,spf,1.694,115.729
67,SDSC-BLU,spf,3.612,315.149
68,SDSC-BLU,spf,3.287,403.083
69,SDSC-BLU,spf,3.319,1619.175
70,SDSC-BLU,spf,2.751,563.63
71,SDSC-BLU,spf,2.886,725.338
72,SDSC-BLU,spf,2.028,601.373
73,SDSC-BLU,spf,3.748,693.4
74,SDSC-BLU,spf,1.968,138.422
75,SDSC-BLU,spf,1.63,140.806
76,SDSC-BLU,spf,3.4,330.65
77,SDSC-BLU,spf,2.167,251.063
78,SDSC-BLU,spf,1.759,318.7
79,SDSC-BLU,spf,3.695,497.41
80,SDSC-BLU,spf,1.597,147.633
81,SDSC-BLU,spf,4.944,1643.967
82,SDSC-BLU,spf,7.263,2862.677
83,SDSC-BLU,spf,3.117,1586.632
84,SDSC-BLU,spf,3.456,542.167
85,SDSC-BLU,spf,4.474,616.95
86,SDSC-BLU,spf,6.28,639.133
87,SDSC-BLU,spf,2.574,477.527
88,SDSC-BLU,spf,1.666,212.903
89,SDSC-BLU,spf,13.801,2754.983
90,SDSC-BLU,spf,3.204,926.1
91,SDSC-BLU,spf,1.293,96.922
92,SDSC-BLU,spf,1.069,15.069
93,SDSC-BLU,spf,12.357,3330.25
94,SDSC-BLU,spf,5.118,1854.25
95,SDSC-BLU,spf,2.739,637.583
96,SDSC-BLU,spf,3.99,834.183
97,SDSC-BLU,spf,6.548,503.783
98,SDSC-BLU,spf,5.613,941.375
99,SDSC-BLU,spf,4.257,904.7
100,SDSC-BLU,spf,10.348,870.3
1,SDSC-BLU,lcfs,4.784,449.5
2,SDSC-BLU,lcfs,2.26,373.444
3,SDSC-BLU,lcfs,2.521,267.624
4,SDSC-BLU,lcfs,3.973,813.85
5,SDSC-BLU,lcfs,3.683,1865.492
6,SDSC-BLU,lcfs,3.599,491.783
7,SDSC-BLU,lcfs,1.115,127.946
8,SDSC-BLU,lcfs,1.209,105.588
9,SDSC-BLU,lcfs,2.74,193.236
10,SDSC-BLU,lcfs,2.532,257.3
11,SDSC-BLU,lcfs,2.017,169.116
12,SDSC-BLU,lcfs,2.177,310.847
13,SDSC-BLU,lcfs,3.646,1684.7
14,SDSC-BLU,lcfs,2.585,166.418
15,SDSC-BLU,lcfs,1.592,69.317
16,SDSC-BLU,lcfs,1.129,58.343
17,SDSC-BLU,lcfs,2.398,135.386
18,SDSC-BLU,lcfs,2.015,158.829
19,SDSC-BLU,lcfs,2.323,136.258
20,SDSC-BLU,lcfs,1.304,57.278
21,SDSC-BLU,lcfs,3.145,421.584
22,SDSC-BLU,lcfs,5.902,1754.569
23,SDSC-BLU,lcfs,4.047,632.057
24,SDSC-BLU,lcfs,4.482,1666.725
25,SDSC-BLU,lcfs,2.518,179.647
26,SDSC-BLU,lcfs,6.685,719.221
27,SDSC-BLU,lcfs,3.862,387.565
28,SDSC-BLU,lcfs,4.09,161.375
29,SDSC-BLU,lcfs,3.64,1153.45
30,SDSC-BLU,lcfs,1.16,49.363
31,SDSC-BLU,lcfs,3.923,149.561
32,SDSC-BLU,lcfs,3.082,277.75
33,SDSC-BLU,lcfs,1.234,20.097
34,SDSC-BLU,lcfs,1.711,111.061
35,SDSC-BLU,lcfs,1.424,184.354
36,SDSC-BLU,lcfs,9.479,2455.425
37,SDSC-BLU,lcfs,1.379,98.983
38,SDSC-BLU,lcfs,6.758,567.726
39,SDSC-BLU,lcfs,12.868,1939.419
40,SDSC-BLU,lcfs,1.437,158.333
41,SDSC-BLU,lcfs,2.591,1850.816
42,SDSC-BLU,lcfs,1.57,264.351
43,SDSC-BLU,lcfs,1.469,90.667
44,SDSC-BLU,lcfs,3.25,1402.639
45,SDSC-BLU,lcfs,2.075,95.557
46,SDSC-BLU,lcfs,6.764,913.484
47,SDSC-BLU,lcfs,4.303,920.333
48,SDSC-BLU,lcfs,6.699,1083.864
49,SDSC-BLU,lcfs,1.885,128.467
50,SDSC-BLU,lcfs,3.221,341.117
51,SDSC-BLU,lcfs,1.779,413.616
52,SDSC-BLU,lcfs,2.33,255.556
53,SDSC-BLU,lcfs,1.088,57.087
54,SDSC-BLU,lcfs,1.124,148.778
55,SDSC-BLU,lcfs,2.26,431.517
56,SDSC-BLU,lcfs,2.134,869.683
57,SDSC-BLU,lcfs,2.516,345.056
58,SDSC-BLU,lcfs,3.102,474.287
59,SDSC-BLU,lcfs,5.396,1795.224
60,SDSC-BLU,lcfs,2.208,399.635
61,SDSC-BLU,lcfs,1.287,138.383
62,SDSC-BLU,lcfs,5.361,1114.016
63,SDSC-BLU,lcfs,12.824,1385.711
64,SDSC-BLU,lcfs,3.783,702.523
65,SDSC-BLU,lcfs,3.472,560.171
66,SDSC-BLU,lcfs,2.092,252.671
67,SDSC-BLU,lcfs,3.72,364.5
68,SDSC-BLU,lcfs,6.031,590.7
69,SDSC-BLU,lcfs,3.521,1669.667
70,SDSC-BLU,lcfs,4.011,1326.537
71,SDSC-BLU,lcfs,3.243,890.761
72,SDSC-BLU,lcfs,1.926,633.68
73,SDSC-BLU,lcfs,8.177,2237.688
74,SDSC-BLU,lcfs,1.678,266.262
75,SDSC-BLU,lcfs,1.605,89.797
76,SDSC-BLU,lcfs,4.873,1488.853
77,SDSC-BLU,lcfs,2.952,516.175
78,SDSC-BLU,lcfs,1.491,159.739
79,SDSC-BLU,lcfs,7.551,2914.904
80,SDSC-BLU,lcfs,1.607,147.9
81,SDSC-BLU,lcfs,2.622,747.738
82,SDSC-BLU,lcfs,9.427,4409.569
83,SDSC-BLU,lcfs,3.978,1586.632
84,SDSC-BLU,lcfs,2.893,522.917
85,SDSC-BLU,lcfs,3.044,435.383
86,SDSC-BLU,lcfs,3.657,548.76
87,SDSC-BLU,lcfs,2.685,610.587
88,SDSC-BLU,lcfs,1.634,76.283
89,SDSC-BLU,lcfs,13.115,3892.483
90,SDSC-BLU,lcfs,2.035,361.596
91,SDSC-BLU,lcfs,1.219,77.137
92,SDSC-BLU,lcfs,1.073,17.278
93,SDSC-BLU,lcfs,14.197,2265.983
94,SDSC-BLU,lcfs,16.65,2436.722
95,SDSC-BLU,lcfs,3.286,452.367
96,SDSC-BLU,lcfs,6.161,1571.117
97,SDSC-BLU,lcfs,7.45,443.774
98,SDSC-BLU,lcfs,4.78,1375.196
99,SDSC-BLU,lcfs,13.684,869.2
100,SDSC-BLU,lcfs,7.041,377.267
1,SDSC-BLU,fcfs,4.419,443.317
2,SDSC-BLU,fcfs,3.189,393.733
3,SDSC-BLU,fcfs,7.867,769.867
4,SDSC-BLU,fcfs,6.735,552.358
5,SDSC-BLU,fcfs,2.498,395.585
6,SDSC-BLU,fcfs,3.771,321.45
7,SDSC-BLU,fcfs,1.064,59.786
8,SDSC-BLU,fcfs,1.336,147.383
9,SDSC-BLU,fcfs,2.941,219.158
10,SDSC-BLU,fcfs,4.46,331.28
11,SDSC-BLU,fcfs,3.453,114.248
12,SDSC-BLU,fcfs,3.754,458.242
13,SDSC-BLU,fcfs,5.558,322.846
14,SDSC-BLU,fcfs,4.243,378.567
15,SDSC-BLU,fcfs,2.414,136.5
16,SDSC-BLU,fcfs,1.252,85.919
17,SDSC-BLU,fcfs,3.434,372.571
18,SDSC-BLU,fcfs,2.907,170.15
19,SDSC-BLU,fcfs,2.968,280.54
20,SDSC-BLU,fcfs,1.657,257.116
21,SDSC-BLU,fcfs,5.883,444.153
22,SDSC-BLU,fcfs,5.481,1192.815
23,SDSC-BLU,fcfs,3.362,580.156
24,SDSC-BLU,fcfs,4.955,173.036
25,SDSC-BLU,fcfs,7.563,327.188
26,SDSC-BLU,fcfs,11.608,1185.935
27,SDSC-BLU,fcfs,5.205,185.297
28,SDSC-BLU,fcfs,8.149,243.721
29,SDSC-BLU,fcfs,2.696,198.208
30,SDSC-BLU,fcfs,1.118,48.312
31,SDSC-BLU,fcfs,4.243,153.504
32,SDSC-BLU,fcfs,3.205,277.75
33,SDSC-BLU,fcfs,1.256,20.097
34,SDSC-BLU,fcfs,2.136,136.366
35,SDSC-BLU,fcfs,1.3,61.592
36,SDSC-BLU,fcfs,8.427,531.188
37,SDSC-BLU,fcfs,1.425,113.989
38,SDSC-BLU,fcfs,6.041,625.26
39,SDSC-BLU,fcfs,7.655,539.554
40,SDSC-BLU,fcfs,3.198,158.333
41,SDSC-BLU,fcfs,1.909,242.183
42,SDSC-BLU,fcfs,1.834,244.978
43,SDSC-BLU,fcfs,1.574,80.0
44,SDSC-BLU,fcfs,3.038,406.41
45,SDSC-BLU,fcfs,2.32,120.75
46,SDSC-BLU,fcfs,6.949,1000.515
47,SDSC-BLU,fcfs,6.202,599.433
48,SDSC-BLU,fcfs,6.879,397.933
49,SDSC-BLU,fcfs,1.222,39.127
50,SDSC-BLU,fcfs,3.379,518.0
51,SDSC-BLU,fcfs,1.998,370.486
52,SDSC-BLU,fcfs,5.208,618.867
53,SDSC-BLU,fcfs,1.09,57.087
54,SDSC-BLU,fcfs,1.041,20.016
55,SDSC-BLU,fcfs,6.874,357.55
56,SDSC-BLU,fcfs,2.396,261.483
57,SDSC-BLU,fcfs,3.557,175.9
58,SDSC-BLU,fcfs,4.937,491.083
59,SDSC-BLU,fcfs,4.559,304.967
60,SDSC-BLU,fcfs,2.436,308.257
61,SDSC-BLU,fcfs,1.383,63.0
62,SDSC-BLU,fcfs,7.355,1362.602
63,SDSC-BLU,fcfs,11.012,1385.711
64,SDSC-BLU,fcfs,4.035,408.776
65,SDSC-BLU,fcfs,7.924,494.517
66,SDSC-BLU,fcfs,2.483,402.983
67,SDSC-BLU,fcfs,3.803,304.567
68,SDSC-BLU,fcfs,3.442,401.633
69,SDSC-BLU,fcfs,3.909,2151.0
70,SDSC-BLU,fcfs,3.691,422.417
71,SDSC-BLU,fcfs,16.65,1391.083
72,SDSC-BLU,fcfs,2.036,608.987
73,SDSC-BLU,fcfs,3.989,730.337
74,SDSC-BLU,fcfs,3.713,368.733
75,SDSC-BLU,fcfs,1.718,140.222
76,SDSC-BLU,fcfs,6.452,305.812
77,SDSC-BLU,fcfs,2.601,530.5
78,SDSC-BLU,fcfs,1.935,110.233
79,SDSC-BLU,fcfs,4.831,497.41
80,SDSC-BLU,fcfs,1.535,193.795
81,SDSC-BLU,fcfs,4.159,980.203
82,SDSC-BLU,fcfs,8.562,1211.508
83,SDSC-BLU,fcfs,4.657,490.0
84,SDSC-BLU,fcfs,8.451,1647.313
85,SDSC-BLU,fcfs,4.888,781.817
86,SDSC-BLU,fcfs,11.566,1643.569
87,SDSC-BLU,fcfs,4.948,482.609
88,SDSC-BLU,fcfs,2.803,175.15
89,SDSC-BLU,fcfs,12.911,2022.883
90,SDSC-BLU,fcfs,5.469,1188.8
91,SDSC-BLU,fcfs,1.302,84.216
92,SDSC-BLU,fcfs,1.104,16.767
93,SDSC-BLU,fcfs,26.016,1792.683
94,SDSC-BLU,fcfs,13.346,2917.45
95,SDSC-BLU,fcfs,5.416,972.817
96,SDSC-BLU,fcfs,6.463,923.8
97,SDSC-BLU,fcfs,13.35,1472.6
98,SDSC-BLU,fcfs,5.678,941.375
99,SDSC-BLU,fcfs,9.475,1064.267
100,SDSC-BLU,fcfs,8.078,764.867
1,SDSC-BLU,lexp,3.794,589.85
2,SDSC-BLU,lexp,2.736,360.037
3,SDSC-BLU,lexp,6.353,975.783
4,SDSC-BLU,lexp,6.216,759.683
5,SDSC-BLU,lexp,3.262,438.683
6,SDSC-BLU,lexp,2.675,117.433
7,SDSC-BLU,lexp,1.062,59.786
8,SDSC-BLU,lexp,1.335,147.383
9,SDSC-BLU,lexp,2.658,236.069
10,SDSC-BLU,lexp,3.186,410.517
11,SDSC-BLU,lexp,3.091,123.467
12,SDSC-BLU,lexp,3.337,356.468
13,SDSC-BLU,lexp,4.691,1239.85
14,SDSC-BLU,lexp,2.917,378.567
15,SDSC-BLU,lexp,2.399,139.5
16,SDSC-BLU,lexp,1.194,71.365
17,SDSC-BLU,lexp,2.648,344.238
18,SDSC-BLU,lexp,2.629,138.242
19,SDSC-BLU,lexp,2.858,281.095
20,SDSC-BLU,lexp,1.646,257.116
21,SDSC-BLU,lexp,2.878,140.403
22,SDSC-BLU,lexp,6.68,832.046
23,SDSC-BLU,lexp,3.097,654.453
24,SDSC-BLU,lexp,3.699,753.121
25,SDSC-BLU,lexp,5.726,297.953
26,SDSC-BLU,lexp,7.037,654.436
27,SDSC-BLU,lexp,4.017,183.329
28,SDSC-BLU,lexp,6.448,116.029
29,SDSC-BLU,lexp,2.151,123.366
30,SDSC-BLU,lexp,1.124,48.312
31,SDSC-BLU,lexp,3.742,190.15
32,SDSC-BLU,lexp,3.064,277.75
33,SDSC-BLU,lexp,1.256,20.097
34,SDSC-BLU,lexp,2.151,144.11
35,SDSC-BLU,lexp,1.298,61.592
36,SDSC-BLU,lexp,4.868,476.986
37,SDSC-BLU,lexp,1.499,288.13
38,SDSC-BLU,lexp,5.082,495.082
39,SDSC-BLU,lexp,7.956,613.737
40,SDSC-BLU,lexp,1.775,158.333
41,SDSC-BLU,lexp,1.721,242.183
42,SDSC-BLU,lexp,1.591,270.321
43,SDSC-BLU,lexp,1.539,80.0
44,SDSC-BLU,lexp,3.282,864.0
45,SDSC-BLU,lexp,1.673,105.642
46,SDSC-BLU,lexp,5.534,748.485
47,SDSC-BLU,lexp,3.688,558.59
48,SDSC-BLU,lexp,6.471,397.933
49,SDSC-BLU,lexp,1.221,39.127
50,SDSC-BLU,lexp,2.43,448.917
51,SDSC-BLU,lexp,1.993,370.486
52,SDSC-BLU,lexp,3.106,387.75
53,SDSC-BLU,lexp,1.09,57.087
54,SDSC-BLU,lexp,1.041,20.016
55,SDSC-BLU,lexp,3.202,431.35
56,SDSC-BLU,lexp,2.022,261.483
57,SDSC-BLU,lexp,2.108,149.033
58,SDSC-BLU,lexp,2.2,58.591
59,SDSC-BLU,lexp,4.372,424.895
60,SDSC-BLU,lexp,2.512,369.55
61,SDSC-BLU,lexp,1.272,61.867
62,SDSC-BLU,lexp,4.967,527.6
63,SDSC-BLU,lexp,11.001,1385.711
64,SDSC-BLU,lexp,4.067,401.224
65,SDSC-BLU,lexp,4.877,449.988
66,SDSC-BLU,lexp,1.712,181.483
67,SDSC-BLU,lexp,3.206,303.985
68,SDSC-BLU,lexp,3.514,521.033
69,SDSC-BLU,lexp,3.223,1613.984
70,SDSC-BLU,lexp,3.472,422.417
71,SDSC-BLU,lexp,3.825,869.211
72,SDSC-BLU,lexp,2.036,608.987
73,SDSC-BLU,lexp,3.694,693.4
74,SDSC-BLU,lexp,2.018,184.18
75,SDSC-BLU,lexp,1.599,138.959
76,SDSC-BLU,lexp,3.125,143.817
77,SDSC-BLU,lexp,2.492,295.708
78,SDSC-BLU,lexp,1.655,112.417
79,SDSC-BLU,lexp,4.8,712.333
80,SDSC-BLU,lexp,1.511,142.217
81,SDSC-BLU,lexp,3.846,1022.65
82,SDSC-BLU,lexp,7.643,2298.831
83,SDSC-BLU,lexp,2.904,924.309
84,SDSC-BLU,lexp,4.452,1537.7
85,SDSC-BLU,lexp,5.506,617.55
86,SDSC-BLU,lexp,19.892,1879.662
87,SDSC-BLU,lexp,3.531,902.344
88,SDSC-BLU,lexp,1.886,195.29
89,SDSC-BLU,lexp,12.938,1653.939
90,SDSC-BLU,lexp,3.749,912.633
91,SDSC-BLU,lexp,1.299,84.216
92,SDSC-BLU,lexp,1.117,33.217
93,SDSC-BLU,lexp,16.584,1947.833
94,SDSC-BLU,lexp,7.354,3465.7
95,SDSC-BLU,lexp,4.371,976.383
96,SDSC-BLU,lexp,4.492,976.533
97,SDSC-BLU,lexp,3.504,441.788
98,SDSC-BLU,lexp,5.684,941.375
99,SDSC-BLU,lexp,6.475,1307.45
100,SDSC-BLU,lexp,9.669,768.067
1,SDSC-BLU,sexp,6.044,867.683
2,SDSC-BLU,sexp,2.473,233.864
3,SDSC-BLU,sexp,2.617,191.985
4,SDSC-BLU,sexp,4.027,626.286
5,SDSC-BLU,sexp,3.924,1865.492
6,SDSC-BLU,sexp,4.809,306.55
7,SDSC-BLU,sexp,1.117,127.946
8,SDSC-BLU,sexp,1.209,105.588
9,SDSC-BLU,sexp,3.006,522.09
10,SDSC-BLU,sexp,6.556,643.022
11,SDSC-BLU,sexp,2.818,252.55
12,SDSC-BLU,sexp,4.267,396.678
13,SDSC-BLU,sexp,3.203,522.691
14,SDSC-BLU,sexp,3.36,346.267
15,SDSC-BLU,sexp,1.492,53.851
16,SDSC-BLU,sexp,1.129,58.343
17,SDSC-BLU,sexp,2.808,181.921
18,SDSC-BLU,sexp,1.882,138.863
19,SDSC-BLU,sexp,2.597,143.156
20,SDSC-BLU,sexp,1.313,57.278
21,SDSC-BLU,sexp,8.624,1510.0
22,SDSC-BLU,sexp,6.323,1754.569
23,SDSC-BLU,sexp,3.997,649.773
24,SDSC-BLU,sexp,4.211,321.101
25,SDSC-BLU,sexp,2.769,200.879
26,SDSC-BLU,sexp,11.102,1266.104
27,SDSC-BLU,sexp,4.207,387.565
28,SDSC-BLU,sexp,6.157,177.179
29,SDSC-BLU,sexp,4.535,1153.45
30,SDSC-BLU,sexp,1.103,49.363
31,SDSC-BLU,sexp,4.003,149.561
32,SDSC-BLU,sexp,3.046,277.75
33,SDSC-BLU,sexp,1.236,20.097
34,SDSC-BLU,sexp,1.772,145.134
35,SDSC-BLU,sexp,1.508,215.68
36,SDSC-BLU,sexp,10.672,2455.425
37,SDSC-BLU,sexp,1.384,101.2
38,SDSC-BLU,sexp,6.637,487.274
39,SDSC-BLU,sexp,12.581,1939.419
40,SDSC-BLU,sexp,1.455,158.333
41,SDSC-BLU,sexp,2.845,1850.816
42,SDSC-BLU,sexp,1.818,280.343
43,SDSC-BLU,sexp,1.486,93.183
44,SDSC-BLU,sexp,4.143,1346.885
45,SDSC-BLU,sexp,2.44,159.443
46,SDSC-BLU,sexp,7.552,922.645
47,SDSC-BLU,sexp,3.899,393.91
48,SDSC-BLU,sexp,7.559,1083.864
49,SDSC-BLU,sexp,2.031,129.433
50,SDSC-BLU,sexp,3.945,668.4
51,SDSC-BLU,sexp,1.779,413.616
52,SDSC-BLU,sexp,5.466,1104.733
53,SDSC-BLU,sexp,1.088,57.087
54,SDSC-BLU,sexp,1.124,148.778
55,SDSC-BLU,sexp,1.91,237.733
56,SDSC-BLU,sexp,2.377,868.767
57,SDSC-BLU,sexp,4.141,345.056
58,SDSC-BLU,sexp,3.512,331.575
59,SDSC-BLU,sexp,6.134,1795.224
60,SDSC-BLU,sexp,2.095,440.432
61,SDSC-BLU,sexp,1.309,138.383
62,SDSC-BLU,sexp,8.073,1114.016
63,SDSC-BLU,sexp,17.149,1385.711
64,SDSC-BLU,sexp,5.789,710.062
65,SDSC-BLU,sexp,6.802,856.25
66,SDSC-BLU,sexp,2.038,235.043
67,SDSC-BLU,sexp,4.714,342.083
68,SDSC-BLU,sexp,4.961,554.483
69,SDSC-BLU,sexp,3.953,2206.683
70,SDSC-BLU,sexp,4.754,1325.759
71,SDSC-BLU,sexp,3.928,644.606
72,SDSC-BLU,sexp,1.927,633.68
73,SDSC-BLU,sexp,5.416,1205.075
74,SDSC-BLU,sexp,2.372,318.607
75,SDSC-BLU,sexp,1.657,89.797
76,SDSC-BLU,sexp,4.963,1487.441
77,SDSC-BLU,sexp,4.122,1071.194
78,SDSC-BLU,sexp,1.736,159.739
79,SDSC-BLU,sexp,5.633,2880.712
80,SDSC-BLU,sexp,1.597,140.167
81,SDSC-BLU,sexp,3.666,1868.815
82,SDSC-BLU,sexp,10.373,4409.569
83,SDSC-BLU,sexp,4.065,1586.632
84,SDSC-BLU,sexp,3.387,812.324
85,SDSC-BLU,sexp,3.689,829.35
86,SDSC-BLU,sexp,5.77,497.896
87,SDSC-BLU,sexp,3.153,610.587
88,SDSC-BLU,sexp,2.141,135.533
89,SDSC-BLU,sexp,35.22,4208.683
90,SDSC-BLU,sexp,4.422,497.35
91,SDSC-BLU,sexp,1.219,77.137
92,SDSC-BLU,sexp,1.073,17.278
93,SDSC-BLU,sexp,15.619,999.767
94,SDSC-BLU,sexp,6.887,3038.3
95,SDSC-BLU,sexp,4.229,595.882
96,SDSC-BLU,sexp,13.266,1026.619
97,SDSC-BLU,sexp,11.309,612.909
98,SDSC-BLU,sexp,5.312,1370.259
99,SDSC-BLU,sexp,13.617,2300.704
100,SDSC-BLU,sexp,7.314,307.317
1,SDSC-BLU,lrf,6.056,880.517
2,SDSC-BLU,lrf,2.476,233.864
3,SDSC-BLU,lrf,2.897,276.8
4,SDSC-BLU,lrf,4.485,557.312
5,SDSC-BLU,lrf,4.203,1865.492
6,SDSC-BLU,lrf,8.606,506.05
7,SDSC-BLU,lrf,1.117,127.946
8,SDSC-BLU,lrf,1.209,105.588
9,SDSC-BLU,lrf,2.679,192.148
10,SDSC-BLU,lrf,6.442,671.172
11,SDSC-BLU,lrf,3.608,252.008
12,SDSC-BLU,lrf,6.241,761.413
13,SDSC-BLU,lrf,4.606,826.747
14,SDSC-BLU,lrf,3.176,346.267
15,SDSC-BLU,lrf,1.557,69.317
16,SDSC-BLU,lrf,1.129,58.343
17,SDSC-BLU,lrf,3.644,373.302
18,SDSC-BLU,lrf,2.163,164.517
19,SDSC-BLU,lrf,2.695,140.328
20,SDSC-BLU,lrf,1.315,57.278
21,SDSC-BLU,lrf,8.416,1429.475
22,SDSC-BLU,lrf,5.806,1754.569
23,SDSC-BLU,lrf,4.126,649.773
24,SDSC-BLU,lrf,4.838,488.5
25,SDSC-BLU,lrf,2.784,200.879
26,SDSC-BLU,lrf,7.793,1215.649
27,SDSC-BLU,lrf,4.272,216.0
28,SDSC-BLU,lrf,6.353,177.223
29,SDSC-BLU,lrf,4.1,1153.45
30,SDSC-BLU,lrf,1.103,49.363
31,SDSC-BLU,lrf,5.29,233.379
32,SDSC-BLU,lrf,3.357,277.75
33,SDSC-BLU,lrf,1.247,20.097
34,SDSC-BLU,lrf,1.924,149.22
35,SDSC-BLU,lrf,1.434,184.354
36,SDSC-BLU,lrf,12.231,2455.425
37,SDSC-BLU,lrf,1.59,350.424
38,SDSC-BLU,lrf,7.179,472.589
39,SDSC-BLU,lrf,15.839,1939.419
40,SDSC-BLU,lrf,1.656,158.333
41,SDSC-BLU,lrf,2.895,1850.816
42,SDSC-BLU,lrf,1.818,244.978
43,SDSC-BLU,lrf,1.512,96.983
44,SDSC-BLU,lrf,4.787,1113.197
45,SDSC-BLU,lrf,2.605,168.689
46,SDSC-BLU,lrf,8.291,1033.765
47,SDSC-BLU,lrf,4.601,353.583
48,SDSC-BLU,lrf,7.537,1083.864
49,SDSC-BLU,lrf,2.34,126.483
50,SDSC-BLU,lrf,7.602,886.783
51,SDSC-BLU,lrf,1.767,413.616
52,SDSC-BLU,lrf,6.616,1042.517
53,SDSC-BLU,lrf,1.088,57.087
54,SDSC-BLU,lrf,1.124,148.778
55,SDSC-BLU,lrf,2.434,262.215
56,SDSC-BLU,lrf,3.09,1854.683
57,SDSC-BLU,lrf,3.389,345.056
58,SDSC-BLU,lrf,8.314,775.5
59,SDSC-BLU,lrf,5.622,1795.224
60,SDSC-BLU,lrf,2.665,399.635
61,SDSC-BLU,lrf,1.306,138.383
62,SDSC-BLU,lrf,10.547,1114.016
63,SDSC-BLU,lrf,13.901,1385.711
64,SDSC-BLU,lrf,6.11,716.385
65,SDSC-BLU,lrf,10.32,859.883
66,SDSC-BLU,lrf,2.162,418.067
67,SDSC-BLU,lrf,4.6,342.083
68,SDSC-BLU,lrf,11.834,529.733
69,SDSC-BLU,lrf,3.976,2201.492
70,SDSC-BLU,lrf,4.5,1325.759
71,SDSC-BLU,lrf,16.874,1318.017
72,SDSC-BLU,lrf,1.926,633.68
73,SDSC-BLU,lrf,5.491,1217.3
74,SDSC-BLU,lrf,3.808,343.935
75,SDSC-BLU,lrf,1.647,89.797
76,SDSC-BLU,lrf,4.438,1311.794
77,SDSC-BLU,lrf,4.455,1071.194
78,SDSC-BLU,lrf,1.756,159.739
79,SDSC-BLU,lrf,5.654,2885.699
80,SDSC-BLU,lrf,1.653,140.167
81,SDSC-BLU,lrf,4.222,1770.319
82,SDSC-BLU,lrf,8.883,2547.892
83,SDSC-BLU,lrf,3.939,1586.632
84,SDSC-BLU,lrf,6.466,2529.731
85,SDSC-BLU,lrf,3.815,829.35
86,SDSC-BLU,lrf,3.801,1077.831
87,SDSC-BLU,lrf,3.288,610.587
88,SDSC-BLU,lrf,1.653,78.963
89,SDSC-BLU,lrf,41.382,4273.883
90,SDSC-BLU,lrf,4.051,495.117
91,SDSC-BLU,lrf,1.21,77.137
92,SDSC-BLU,lrf,1.069,17.278
93,SDSC-BLU,lrf,17.446,1986.317
94,SDSC-BLU,lrf,7.022,2234.928
95,SDSC-BLU,lrf,6.843,1198.5
96,SDSC-BLU,lrf,10.482,1757.867
97,SDSC-BLU,lrf,11.056,608.58
98,SDSC-BLU,lrf,5.329,1370.259
99,SDSC-BLU,lrf,8.777,2300.704
100,SDSC-BLU,lrf,6.688,307.317
1,SDSC-BLU,srf,5.369,589.85
2,SDSC-BLU,srf,2.288,179.97
3,SDSC-BLU,srf,6.491,1439.16
4,SDSC-BLU,srf,6.821,716.0
5,SDSC-BLU,srf,3.856,690.133
6,SDSC-BLU,srf,2.366,120.733
7,SDSC-BLU,srf,1.062,59.786
8,SDSC-BLU,srf,1.316,150.45
9,SDSC-BLU,srf,2.684,192.148
10,SDSC-BLU,srf,3.332,780.667
11,SDSC-BLU,srf,2.485,149.983
12,SDSC-BLU,srf,2.394,411.109
13,SDSC-BLU,srf,3.14,637.014
14,SDSC-BLU,srf,2.45,166.418
15,SDSC-BLU,srf,2.661,305.767
16,SDSC-BLU,srf,1.241,86.895
17,SDSC-BLU,srf,2.071,136.936
18,SDSC-BLU,srf,2.395,130.859
19,SDSC-BLU,srf,3.031,289.206
20,SDSC-BLU,srf,1.945,364.495
21,SDSC-BLU,srf,4.033,226.264
22,SDSC-BLU,srf,4.106,363.529
23,SDSC-BLU,srf,3.142,707.312
24,SDSC-BLU,srf,4.639,697.495
25,SDSC-BLU,srf,4.08,147.183
26,SDSC-BLU,srf,10.262,657.532
27,SDSC-BLU,srf,3.754,183.329
28,SDSC-BLU,srf,4.142,75.967
29,SDSC-BLU,srf,2.117,121.139
30,SDSC-BLU,srf,1.124,48.312
31,SDSC-BLU,srf,3.254,190.15
32,SDSC-BLU,srf,2.966,277.75
33,SDSC-BLU,srf,1.244,20.097
34,SDSC-BLU,srf,2.098,144.11
35,SDSC-BLU,srf,1.318,61.592
36,SDSC-BLU,srf,4.506,475.865
37,SDSC-BLU,srf,1.387,100.367
38,SDSC-BLU,srf,4.931,328.151
39,SDSC-BLU,srf,6.546,564.011
40,SDSC-BLU,srf,1.827,158.333
41,SDSC-BLU,srf,1.843,242.183
42,SDSC-BLU,srf,1.629,271.433
43,SDSC-BLU,srf,1.526,81.483
44,SDSC-BLU,srf,3.323,989.525
45,SDSC-BLU,srf,2.424,114.733
46,SDSC-BLU,srf,7.535,329.118
47,SDSC-BLU,srf,6.316,558.59
48,SDSC-BLU,srf,6.448,397.933
49,SDSC-BLU,srf,1.248,39.127
50,SDSC-BLU,srf,1.969,182.414
51,SDSC-BLU,srf,1.995,373.417
52,SDSC-BLU,srf,3.212,278.133
53,SDSC-BLU,srf,1.09,57.087
54,SDSC-BLU,srf,1.041,20.016
55,SDSC-BLU,srf,3.296,539.317
56,SDSC-BLU,srf,2.128,261.483
57,SDSC-BLU,srf,1.914,229.233
58,SDSC-BLU,srf,2.434,147.624
59,SDSC-BLU,srf,4.076,304.967
60,SDSC-BLU,srf,2.743,451.25
61,SDSC-BLU,srf,1.235,48.633
62,SDSC-BLU,srf,4.91,469.06
63,SDSC-BLU,srf,11.45,1385.711
64,SDSC-BLU,srf,4.275,509.462
65,SDSC-BLU,srf,4.013,403.338
66,SDSC-BLU,srf,1.742,115.729
67,SDSC-BLU,srf,3.459,300.388
68,SDSC-BLU,srf,3.724,464.017
69,SDSC-BLU,srf,3.467,1619.175
70,SDSC-BLU,srf,4.226,422.417
71,SDSC-BLU,srf,4.018,887.577
72,SDSC-BLU,srf,2.027,601.373
73,SDSC-BLU,srf,3.782,693.4
74,SDSC-BLU,srf,2.081,139.203
75,SDSC-BLU,srf,1.642,138.959
76,SDSC-BLU,srf,5.366,407.083
77,SDSC-BLU,srf,2.191,297.236
78,SDSC-BLU,srf,1.88,317.35
79,SDSC-BLU,srf,4.858,497.41
80,SDSC-BLU,srf,1.535,158.311
81,SDSC-BLU,srf,4.067,1322.767
82,SDSC-BLU,srf,6.874,3140.138
83,SDSC-BLU,srf,4.478,531.883
84,SDSC-BLU,srf,4.587,1701.067
85,SDSC-BLU,srf,6.041,590.033
86,SDSC-BLU,srf,9.694,1201.1
87,SDSC-BLU,srf,3.689,909.344
88,SDSC-BLU,srf,1.793,163.667
89,SDSC-BLU,srf,15.17,2048.35
90,SDSC-BLU,srf,2.836,926.1
91,SDSC-BLU,srf,1.297,96.922
92,SDSC-BLU,srf,1.121,30.517
93,SDSC-BLU,srf,40.181,2748.6
94,SDSC-BLU,srf,8.08,2266.283
95,SDSC-BLU,srf,4.572,736.6
96,SDSC-BLU,srf,4.09,622.939
97,SDSC-BLU,srf,19.933,1422.867
98,SDSC-BLU,srf,5.922,941.375
99,SDSC-BLU,srf,5.259,904.7
100,SDSC-BLU,srf,8.149,825.483
1,SDSC-BLU,laf,7.187,774.933
2,SDSC-BLU,laf,2.714,153.839
3,SDSC-BLU,laf,10.275,2037.467
4,SDSC-BLU,laf,9.555,556.312
5,SDSC-BLU,laf,4.453,1295.431
6,SDSC-BLU,laf,3.807,277.532
7,SDSC-BLU,laf,1.23,127.934
8,SDSC-BLU,laf,1.335,150.45
9,SDSC-BLU,laf,2.979,192.148
10,SDSC-BLU,laf,8.264,720.8
11,SDSC-BLU,laf,3.737,211.054
12,SDSC-BLU,laf,5.227,626.974
13,SDSC-BLU,laf,2.382,284.736
14,SDSC-BLU,laf,4.463,346.317
15,SDSC-BLU,laf,2.264,428.29
16,SDSC-BLU,laf,1.241,86.895
17,SDSC-BLU,laf,3.527,373.302
18,SDSC-BLU,laf,2.247,124.071
19,SDSC-BLU,laf,3.097,284.508
20,SDSC-BLU,laf,1.957,364.495
21,SDSC-BLU,laf,9.408,1417.653
22,SDSC-BLU,laf,7.933,1754.569
23,SDSC-BLU,laf,4.777,649.773
24,SDSC-BLU,laf,4.536,304.968
25,SDSC-BLU,laf,18.497,535.667
26,SDSC-BLU,laf,19.242,1384.935
27,SDSC-BLU,laf,6.262,522.565
28,SDSC-BLU,laf,5.761,169.884
29,SDSC-BLU,laf,4.019,1207.607
30,SDSC-BLU,laf,1.206,72.817
31,SDSC-BLU,laf,3.991,147.077
32,SDSC-BLU,laf,3.587,277.75
33,SDSC-BLU,laf,1.258,20.097
34,SDSC-BLU,laf,3.053,138.366
35,SDSC-BLU,laf,1.392,131.769
36,SDSC-BLU,laf,11.759,2455.425
37,SDSC-BLU,laf,1.43,113.989
38,SDSC-BLU,laf,6.821,453.014
39,SDSC-BLU,laf,14.01,2151.095
40,SDSC-BLU,laf,2.216,191.725
41,SDSC-BLU,laf,1.979,242.183
42,SDSC-BLU,laf,1.827,244.978
43,SDSC-BLU,laf,1.669,96.6
44,SDSC-BLU,laf,3.437,1088.77
45,SDSC-BLU,laf,2.979,177.883
46,SDSC-BLU,laf,6.709,618.839
47,SDSC-BLU,laf,7.927,604.383
48,SDSC-BLU,laf,10.011,1083.864
49,SDSC-BLU,laf,1.972,126.483
50,SDSC-BLU,laf,4.978,610.433
51,SDSC-BLU,laf,1.797,413.616
52,SDSC-BLU,laf,5.522,753.133
53,SDSC-BLU,laf,1.089,57.087
54,SDSC-BLU,laf,1.124,148.778
55,SDSC-BLU,laf,8.564,702.983
56,SDSC-BLU,laf,3.374,908.4
57,SDSC-BLU,laf,5.062,479.35
58,SDSC-BLU,laf,6.299,517.167
59,SDSC-BLU,laf,5.414,509.695
60,SDSC-BLU,laf,2.09,441.811
61,SDSC-BLU,laf,1.292,48.633
62,SDSC-BLU,laf,8.861,2590.554
63,SDSC-BLU,laf,12.44,1385.711
64,SDSC-BLU,laf,4.934,550.077
65,SDSC-BLU,laf,7.673,541.883
66,SDSC-BLU,laf,2.693,468.433
67,SDSC-BLU,laf,4.749,307.806
68,SDSC-BLU,laf,4.217,529.733
69,SDSC-BLU,laf,4.04,2151.0
70,SDSC-BLU,laf,4.692,1322.657
71,SDSC-BLU,laf,5.924,541.733
72,SDSC-BLU,laf,1.979,601.373
73,SDSC-BLU,laf,5.706,1201.588
74,SDSC-BLU,laf,3.627,335.827
75,SDSC-BLU,laf,2.018,90.123
76,SDSC-BLU,laf,5.371,307.929
77,SDSC-BLU,laf,3.946,661.029
78,SDSC-BLU,laf,1.843,159.739
79,SDSC-BLU,laf,6.17,497.41
80,SDSC-BLU,laf,1.681,195.836
81,SDSC-BLU,laf,4.363,1050.971
82,SDSC-BLU,laf,8.222,762.7
83,SDSC-BLU,laf,9.172,559.967
84,SDSC-BLU,laf,10.256,3196.94
85,SDSC-BLU,laf,6.119,1003.144
86,SDSC-BLU,laf,3.997,502.862
87,SDSC-BLU,laf,3.752,1803.609
88,SDSC-BLU,laf,3.481,213.95
89,SDSC-BLU,laf,23.607,4135.833
90,SDSC-BLU,laf,3.701,1188.8
91,SDSC-BLU,laf,1.224,77.137
92,SDSC-BLU,laf,1.107,16.767
93,SDSC-BLU,laf,20.228,963.733
94,SDSC-BLU,laf,15.538,2778.062
95,SDSC-BLU,laf,8.369,444.25
96,SDSC-BLU,laf,13.847,3038.533
97,SDSC-BLU,laf,17.635,2482.167
98,SDSC-BLU,laf,5.047,1370.259
99,SDSC-BLU,laf,18.895,2300.704
100,SDSC-BLU,laf,9.32,764.867
1,SDSC-BLU,saf,4.498,455.467
2,SDSC-BLU,saf,2.734,360.037
3,SDSC-BLU,saf,2.737,255.978
4,SDSC-BLU,saf,4.279,806.417
5,SDSC-BLU,saf,2.403,522.337
6,SDSC-BLU,saf,1.71,117.035
7,SDSC-BLU,saf,1.059,59.786
8,SDSC-BLU,saf,1.196,68.946
9,SDSC-BLU,saf,2.673,374.117
10,SDSC-BLU,saf,2.524,253.65
11,SDSC-BLU,saf,2.202,122.683
12,SDSC-BLU,saf,1.715,192.487
13,SDSC-BLU,saf,3.103,468.829
14,SDSC-BLU,saf,2.329,166.418
15,SDSC-BLU,saf,1.62,76.977
16,SDSC-BLU,saf,1.129,58.343
17,SDSC-BLU,saf,1.956,120.417
18,SDSC-BLU,saf,1.968,145.394
19,SDSC-BLU,saf,1.563,128.527
20,SDSC-BLU,saf,1.303,57.278
21,SDSC-BLU,saf,2.448,175.714
22,SDSC-BLU,saf,2.966,283.405
23,SDSC-BLU,saf,3.156,550.906
24,SDSC-BLU,saf,4.05,1661.813
25,SDSC-BLU,saf,2.492,92.5
26,SDSC-BLU,saf,3.474,196.0
27,SDSC-BLU,saf,3.265,183.329
28,SDSC-BLU,saf,4.184,101.446
29,SDSC-BLU,saf,1.905,88.525
30,SDSC-BLU,saf,1.123,48.312
31,SDSC-BLU,saf,3.196,129.922
32,SDSC-BLU,saf,3.146,277.75
33,SDSC-BLU,saf,1.234,20.097
34,SDSC-BLU,saf,1.595,144.11
35,SDSC-BLU,saf,1.294,120.49
36,SDSC-BLU,saf,5.395,748.174
37,SDSC-BLU,saf,1.347,98.983
38,SDSC-BLU,saf,5.694,532.096
39,SDSC-BLU,saf,9.482,1113.148
40,SDSC-BLU,saf,1.462,158.333
41,SDSC-BLU,saf,2.523,1850.816
42,SDSC-BLU,saf,1.551,264.351
43,SDSC-BLU,saf,1.436,81.483
44,SDSC-BLU,saf,3.305,1023.459
45,SDSC-BLU,saf,1.442,39.4
46,SDSC-BLU,saf,4.664,1336.118
47,SDSC-BLU,saf,3.732,1226.051
48,SDSC-BLU,saf,4.672,594.199
49,SDSC-BLU,saf,1.207,48.392
50,SDSC-BLU,saf,1.98,176.567
51,SDSC-BLU,saf,1.58,241.994
52,SDSC-BLU,saf,2.396,263.935
53,SDSC-BLU,saf,1.086,57.087
54,SDSC-BLU,saf,1.041,20.016
55,SDSC-BLU,saf,2.345,577.183
56,SDSC-BLU,saf,1.674,381.701
57,SDSC-BLU,saf,1.88,175.5
58,SDSC-BLU,saf,2.213,161.264
59,SDSC-BLU,saf,5.131,1796.026
60,SDSC-BLU,saf,2.789,599.9
61,SDSC-BLU,saf,1.218,138.383
62,SDSC-BLU,saf,4.691,369.95
63,SDSC-BLU,saf,12.265,1385.711
64,SDSC-BLU,saf,4.129,511.026
65,SDSC-BLU,saf,5.086,2533.229
66,SDSC-BLU,saf,1.764,247.45
67,SDSC-BLU,saf,3.488,364.5
68,SDSC-BLU,saf,3.093,494.6
69,SDSC-BLU,saf,3.26,1619.175
70,SDSC-BLU,saf,1.68,436.5
71,SDSC-BLU,saf,2.85,594.563
72,SDSC-BLU,saf,2.319,835.453
73,SDSC-BLU,saf,4.041,730.337
74,SDSC-BLU,saf,1.869,199.016
75,SDSC-BLU,saf,1.515,89.797
76,SDSC-BLU,saf,3.575,364.809
77,SDSC-BLU,saf,1.897,170.286
78,SDSC-BLU,saf,1.629,321.15
79,SDSC-BLU,saf,2.83,497.41
80,SDSC-BLU,saf,1.603,147.867
81,SDSC-BLU,saf,2.397,456.913
82,SDSC-BLU,saf,8.784,2864.569
83,SDSC-BLU,saf,3.059,1586.632
84,SDSC-BLU,saf,3.35,688.0
85,SDSC-BLU,saf,2.983,405.85
86,SDSC-BLU,saf,7.125,579.35
87,SDSC-BLU,saf,2.66,610.587
88,SDSC-BLU,saf,1.611,89.774
89,SDSC-BLU,saf,12.034,3035.683
90,SDSC-BLU,saf,1.921,341.651
91,SDSC-BLU,saf,1.281,82.343
92,SDSC-BLU,saf,1.066,15.069
93,SDSC-BLU,saf,10.177,3017.05
94,SDSC-BLU,saf,4.273,3040.533
95,SDSC-BLU,saf,3.46,1070.633
96,SDSC-BLU,saf,4.376,833.308
97,SDSC-BLU,saf,3.69,407.94
98,SDSC-BLU,saf,5.58,941.375
99,SDSC-BLU,saf,3.883,869.2
100,SDSC-BLU,saf,7.061,425.0
1,SDSC-BLU,xnes_dynamic_clairvoyant_6,3.163,420.883
2,SDSC-BLU,xnes_dynamic_clairvoyant_6,2.059,161.323
3,SDSC-BLU,xnes_dynamic_clairvoyant_6,2.112,96.833
4,SDSC-BLU,xnes_dynamic_clairvoyant_6,3.14,737.6
5,SDSC-BLU,xnes_dynamic_clairvoyant_6,2.257,522.337
6,SDSC-BLU,xnes_dynamic_clairvoyant_6,1.493,79.467
7,SDSC-BLU,xnes_dynamic_clairvoyant_6,1.059,59.786
8,SDSC-BLU,xnes_dynamic_clairvoyant_6,1.189,68.946
9,SDSC-BLU,xnes_dynamic_clairvoyant_6,2.117,155.459
10,SDSC-BLU,xnes_dynamic_clairvoyant_6,2.44,220.967
11,SDSC-BLU,xnes_dynamic_clairvoyant_6,1.874,249.085
12,SDSC-BLU,xnes_dynamic_clairvoyant_6,1.508,246.059
13,SDSC-BLU,xnes_dynamic_clairvoyant_6,2.081,116.908
14,SDSC-BLU,xnes_dynamic_clairvoyant_6,1.909,166.418
15,SDSC-BLU,xnes_dynamic_clairvoyant_6,1.468,53.851
16,SDSC-BLU,xnes_dynamic_clairvoyant_6,1.129,58.343
17,SDSC-BLU,xnes_dynamic_clairvoyant_6,1.704,125.307
18,SDSC-BLU,xnes_dynamic_clairvoyant_6,1.872,141.455
19,SDSC-BLU,xnes_dynamic_clairvoyant_6,1.494,105.384
20,SDSC-BLU,xnes_dynamic_clairvoyant_6,1.196,32.658
21,SDSC-BLU,xnes_dynamic_clairvoyant_6,2.011,84.429
22,SDSC-BLU,xnes_dynamic_clairvoyant_6,2.526,258.662
23,SDSC-BLU,xnes_dynamic_clairvoyant_6,2.814,491.25
24,SDSC-BLU,xnes_dynamic_clairvoyant_6,2.429,499.044
25,SDSC-BLU,xnes_dynamic_clairvoyant_6,2.068,84.78
26,SDSC-BLU,xnes_dynamic_clairvoyant_6,3.059,193.247
27,SDSC-BLU,xnes_dynamic_clairvoyant_6,2.323,183.329
28,SDSC-BLU,xnes_dynamic_clairvoyant_6,3.446,90.282
29,SDSC-BLU,xnes_dynamic_clairvoyant_6,1.818,90.446
30,SDSC-BLU,xnes_dynamic_clairvoyant_6,1.103,49.363
31,SDSC-BLU,xnes_dynamic_clairvoyant_6,2.815,103.809
32,SDSC-BLU,xnes_dynamic_clairvoyant_6,2.671,277.75
33,SDSC-BLU,xnes_dynamic_clairvoyant_6,1.234,20.097
34,SDSC-BLU,xnes_dynamic_clairvoyant_6,1.59,144.11
35,SDSC-BLU,xnes_dynamic_clairvoyant_6,1.178,61.592
36,SDSC-BLU,xnes_dynamic_clairvoyant_6,3.584,476.986
37,SDSC-BLU,xnes_dynamic_clairvoyant_6,1.325,98.983
38,SDSC-BLU,xnes_dynamic_clairvoyant_6,3.519,293.911
39,SDSC-BLU,xnes_dynamic_clairvoyant_6,5.887,570.905
40,SDSC-BLU,xnes_dynamic_clairvoyant_6,1.418,158.333
41,SDSC-BLU,xnes_dynamic_clairvoyant_6,1.492,404.448
42,SDSC-BLU,xnes_dynamic_clairvoyant_6,1.539,264.351
43,SDSC-BLU,xnes_dynamic_clairvoyant_6,1.435,81.483
44,SDSC-BLU,xnes_dynamic_clairvoyant_6,1.971,406.41
45,SDSC-BLU,xnes_dynamic_clairvoyant_6,1.475,39.4
46,SDSC-BLU,xnes_dynamic_clairvoyant_6,3.064,310.032
47,SDSC-BLU,xnes_dynamic_clairvoyant_6,2.774,398.436
48,SDSC-BLU,xnes_dynamic_clairvoyant_6,4.339,633.131
49,SDSC-BLU,xnes_dynamic_clairvoyant_6,1.19,61.849
50,SDSC-BLU,xnes_dynamic_clairvoyant_6,1.485,122.748
51,SDSC-BLU,xnes_dynamic_clairvoyant_6,1.733,413.616
52,SDSC-BLU,xnes_dynamic_clairvoyant_6,2.027,172.994
53,SDSC-BLU,xnes_dynamic_clairvoyant_6,1.086,57.087
54,SDSC-BLU,xnes_dynamic_clairvoyant_6,1.041,20.016
55,SDSC-BLU,xnes_dynamic_clairvoyant_6,1.85,381.017
56,SDSC-BLU,xnes_dynamic_clairvoyant_6,1.63,261.483
57,SDSC-BLU,xnes_dynamic_clairvoyant_6,1.521,95.883
58,SDSC-BLU,xnes_dynamic_clairvoyant_6,1.768,57.866
59,SDSC-BLU,xnes_dynamic_clairvoyant_6,3.199,308.568
60,SDSC-BLU,xnes_dynamic_clairvoyant_6,1.638,223.135
61,SDSC-BLU,xnes_dynamic_clairvoyant_6,1.2,99.9
62,SDSC-BLU,xnes_dynamic_clairvoyant_6,2.597,352.733
63,SDSC-BLU,xnes_dynamic_clairvoyant_6,10.69,1385.711
64,SDSC-BLU,xnes_dynamic_clairvoyant_6,3.445,466.585
65,SDSC-BLU,xnes_dynamic_clairvoyant_6,2.099,181.362
66,SDSC-BLU,xnes_dynamic_clairvoyant_6,1.592,114.8
67,SDSC-BLU,xnes_dynamic_clairvoyant_6,2.832,316.194
68,SDSC-BLU,xnes_dynamic_clairvoyant_6,2.608,403.083
69,SDSC-BLU,xnes_dynamic_clairvoyant_6,2.441,801.032
70,SDSC-BLU,xnes_dynamic_clairvoyant_6,1.581,436.5
71,SDSC-BLU,xnes_dynamic_clairvoyant_6,2.577,152.673
72,SDSC-BLU,xnes_dynamic_clairvoyant_6,1.897,633.68
73,SDSC-BLU,xnes_dynamic_clairvoyant_6,3.628,730.337
74,SDSC-BLU,xnes_dynamic_clairvoyant_6,1.461,68.233
75,SDSC-BLU,xnes_dynamic_clairvoyant_6,1.34,88.348
76,SDSC-BLU,xnes_dynamic_clairvoyant_6,1.982,364.809
77,SDSC-BLU,xnes_dynamic_clairvoyant_6,1.787,168.143
78,SDSC-BLU,xnes_dynamic_clairvoyant_6,1.415,159.739
79,SDSC-BLU,xnes_dynamic_clairvoyant_6,2.73,497.41
80,SDSC-BLU,xnes_dynamic_clairvoyant_6,1.343,140.167
81,SDSC-BLU,xnes_dynamic_clairvoyant_6,2.176,348.913
82,SDSC-BLU,xnes_dynamic_clairvoyant_6,4.185,1085.556
83,SDSC-BLU,xnes_dynamic_clairvoyant_6,1.804,557.044
84,SDSC-BLU,xnes_dynamic_clairvoyant_6,2.16,516.017
85,SDSC-BLU,xnes_dynamic_clairvoyant_6,1.534,97.057
86,SDSC-BLU,xnes_dynamic_clairvoyant_6,2.666,497.783
87,SDSC-BLU,xnes_dynamic_clairvoyant_6,1.847,352.887
88,SDSC-BLU,xnes_dynamic_clairvoyant_6,1.31,84.839
89,SDSC-BLU,xnes_dynamic_clairvoyant_6,5.919,3209.617
90,SDSC-BLU,xnes_dynamic_clairvoyant_6,1.665,178.459
91,SDSC-BLU,xnes_dynamic_clairvoyant_6,1.198,77.137
92,SDSC-BLU,xnes_dynamic_clairvoyant_6,1.062,15.148
93,SDSC-BLU,xnes_dynamic_clairvoyant_6,6.636,1071.795
94,SDSC-BLU,xnes_dynamic_clairvoyant_6,2.739,622.887
95,SDSC-BLU,xnes_dynamic_clairvoyant_6,2.298,348.909
96,SDSC-BLU,xnes_dynamic_clairvoyant_6,2.417,239.492
97,SDSC-BLU,xnes_dynamic_clairvoyant_6,1.5,34.233
98,SDSC-BLU,xnes_dynamic_clairvoyant_6,3.479,1209.634
99,SDSC-BLU,xnes_dynamic_clairvoyant_6,2.958,869.2
100,SDSC-BLU,xnes_dynamic_clairvoyant_6,5.454,319.25
1,SDSC-BLU,past_week_6,0.0
5,SDSC-BLU,past_week_6,0.0,0.0
3,SDSC-BLU,past_week_6,2.949,196.233
4,SDSC-BLU,past_week_6,4.093,912.4
5,SDSC-BLU,past_week_6,3.703,1886.985
6,SDSC-BLU,past_week_6,1.552,111.808
7,SDSC-BLU,past_week_6,1.062,59.786
8,SDSC-BLU,past_week_6,1.295,146.533
9,SDSC-BLU,past_week_6,2.288,192.148
10,SDSC-BLU,past_week_6,3.236,244.867
11,SDSC-BLU,past_week_6,2.439,352.713
12,SDSC-BLU,past_week_6,3.372,396.678
13,SDSC-BLU,past_week_6,2.875,655.114
14,SDSC-BLU,past_week_6,3.824,306.583
15,SDSC-BLU,past_week_6,1.638,76.977
16,SDSC-BLU,past_week_6,1.129,58.343
17,SDSC-BLU,past_week_6,2.451,133.257
18,SDSC-BLU,past_week_6,3.772,170.081
19,SDSC-BLU,past_week_6,2.262,109.067
20,SDSC-BLU,past_week_6,1.196,32.658
21,SDSC-BLU,past_week_6,4.175,509.848
22,SDSC-BLU,past_week_6,3.78,256.237
23,SDSC-BLU,past_week_6,2.911,491.062
24,SDSC-BLU,past_week_6,3.323,959.143
25,SDSC-BLU,past_week_6,8.149,293.47
26,SDSC-BLU,past_week_6,4.572,280.247
27,SDSC-BLU,past_week_6,3.197,183.329
28,SDSC-BLU,past_week_6,3.901,98.745
29,SDSC-BLU,past_week_6,2.132,289.436
30,SDSC-BLU,past_week_6,1.127,48.312
31,SDSC-BLU,past_week_6,5.13,229.78
32,SDSC-BLU,past_week_6,3.138,277.75
33,SDSC-BLU,past_week_6,1.244,20.097
34,SDSC-BLU,past_week_6,1.627,144.11
35,SDSC-BLU,past_week_6,1.29,97.619
36,SDSC-BLU,past_week_6,4.063,476.986
37,SDSC-BLU,past_week_6,1.517,288.13
38,SDSC-BLU,past_week_6,5.779,504.192
39,SDSC-BLU,past_week_6,8.453,1148.6
40,SDSC-BLU,past_week_6,1.42,158.333
41,SDSC-BLU,past_week_6,3.075,1838.848
42,SDSC-BLU,past_week_6,1.555,264.351
43,SDSC-BLU,past_week_6,1.437,81.817
44,SDSC-BLU,past_week_6,4.449,1449.033
45,SDSC-BLU,past_week_6,2.302,104.273
46,SDSC-BLU,past_week_6,6.635,1449.074
47,SDSC-BLU,past_week_6,4.223,984.038
48,SDSC-BLU,past_week_6,5.153,444.354
49,SDSC-BLU,past_week_6,1.878,128.467
50,SDSC-BLU,past_week_6,1.954,276.767
51,SDSC-BLU,past_week_6,1.776,413.616
52,SDSC-BLU,past_week_6,4.724,719.0
53,SDSC-BLU,past_week_6,1.09,57.087
54,SDSC-BLU,past_week_6,1.146,143.667
55,SDSC-BLU,past_week_6,7.381,454.9
56,SDSC-BLU,past_week_6,2.732,1853.4
57,SDSC-BLU,past_week_6,1.835,104.887
58,SDSC-BLU,past_week_6,2.037,81.222
59,SDSC-BLU,past_week_6,3.972,672.829
60,SDSC-BLU,past_week_6,2.47,417.667
61,SDSC-BLU,past_week_6,1.391,70.117
62,SDSC-BLU,past_week_6,7.449,369.95
63,SDSC-BLU,past_week_6,11.413,1385.711
64,SDSC-BLU,past_week_6,3.692,692.6
65,SDSC-BLU,past_week_6,3.461,1330.457
66,SDSC-BLU,past_week_6,1.933,254.9
67,SDSC-BLU,past_week_6,3.436,301.433
68,SDSC-BLU,past_week_6,2.913,401.633
69,SDSC-BLU,past_week_6,3.444,1613.984
70,SDSC-BLU,past_week_6,2.075,1030.806
71,SDSC-BLU,past_week_6,2.856,681.423
72,SDSC-BLU,past_week_6,1.905,641.293
73,SDSC-BLU,past_week_6,5.497,1212.388
74,SDSC-BLU,past_week_6,3.007,352.833
75,SDSC-BLU,past_week_6,1.558,157.265
76,SDSC-BLU,past_week_6,2.712,134.05
77,SDSC-BLU,past_week_6,3.3,813.125
78,SDSC-BLU,past_week_6,1.751,318.7
79,SDSC-BLU,past_week_6,4.237,1403.37
80,SDSC-BLU,past_week_6,1.571,147.867
81,SDSC-BLU,past_week_6,4.051,891.333
82,SDSC-BLU,past_week_6,7.18,2457.892
83,SDSC-BLU,past_week_6,4.667,367.691
84,SDSC-BLU,past_week_6,3.69,539.167
85,SDSC-BLU,past_week_6,3.671,943.867
86,SDSC-BLU,past_week_6,11.466,1040.477
87,SDSC-BLU,past_week_6,2.662,610.587
88,SDSC-BLU,past_week_6,1.689,214.333
89,SDSC-BLU,past_week_6,9.065,2873.433
90,SDSC-BLU,past_week_6,3.611,937.783
91,SDSC-BLU,past_week_6,1.281,82.343
92,SDSC-BLU,past_week_6,1.068,17.278
93,SDSC-BLU,past_week_6,11.699,3015.883
94,SDSC-BLU,past_week_6,8.372,2293.928
95,SDSC-BLU,past_week_6,3.311,496.85
96,SDSC-BLU,past_week_6,6.511,464.523
97,SDSC-BLU,past_week_6,2.577,363.917
98,SDSC-BLU,past_week_6,5.68,941.375
99,SDSC-BLU,past_week_6,6.428,869.2
100,SDSC-BLU,past_week_6,9.111,425.633
1,SDSC-BLU,learning_offline_6,3.982,412.85
2,SDSC-BLU,learning_offline_6,2.266,179.97
3,SDSC-BLU,learning_offline_6,3.023,295.52
4,SDSC-BLU,learning_offline_6,4.075,784.2
5,SDSC-BLU,learning_offline_6,3.257,599.116
6,SDSC-BLU,learning_offline_6,1.859,98.1
7,SDSC-BLU,learning_offline_6,1.062,59.786
8,SDSC-BLU,learning_offline_6,1.282,146.533
9,SDSC-BLU,learning_offline_6,2.953,374.55
10,SDSC-BLU,learning_offline_6,2.566,241.183
11,SDSC-BLU,learning_offline_6,2.136,121.65
12,SDSC-BLU,learning_offline_6,2.058,345.086
13,SDSC-BLU,learning_offline_6,3.796,1702.157
14,SDSC-BLU,learning_offline_6,2.036,166.418
15,SDSC-BLU,learning_offline_6,2.404,136.5
16,SDSC-BLU,learning_offline_6,1.129,58.343
17,SDSC-BLU,learning_offline_6,1.956,137.378
18,SDSC-BLU,learning_offline_6,1.973,147.091
19,SDSC-BLU,learning_offline_6,2.157,178.46
20,SDSC-BLU,learning_offline_6,1.304,57.278
21,SDSC-BLU,learning_offline_6,2.53,175.714
22,SDSC-BLU,learning_offline_6,3.201,314.512
23,SDSC-BLU,learning_offline_6,3.107,592.469
24,SDSC-BLU,learning_offline_6,2.972,758.165
25,SDSC-BLU,learning_offline_6,3.366,207.809
26,SDSC-BLU,learning_offline_6,4.287,283.0
27,SDSC-BLU,learning_offline_6,3.159,183.329
28,SDSC-BLU,learning_offline_6,3.956,78.806
29,SDSC-BLU,learning_offline_6,1.936,102.218
30,SDSC-BLU,learning_offline_6,1.123,48.312
31,SDSC-BLU,learning_offline_6,3.389,194.876
32,SDSC-BLU,learning_offline_6,2.855,277.75
33,SDSC-BLU,learning_offline_6,1.244,20.097
34,SDSC-BLU,learning_offline_6,1.8,144.11
35,SDSC-BLU,learning_offline_6,1.22,61.592
36,SDSC-BLU,learning_offline_6,3.94,515.176
37,SDSC-BLU,learning_offline_6,1.355,100.367
38,SDSC-BLU,learning_offline_6,4.365,328.151
39,SDSC-BLU,learning_offline_6,6.109,885.589
40,SDSC-BLU,learning_offline_6,1.656,158.333
41,SDSC-BLU,learning_offline_6,2.656,1850.816
42,SDSC-BLU,learning_offline_6,1.562,270.321
43,SDSC-BLU,learning_offline_6,1.502,82.833
44,SDSC-BLU,learning_offline_6,3.529,989.525
45,SDSC-BLU,learning_offline_6,1.603,130.568
46,SDSC-BLU,learning_offline_6,5.375,1337.824
47,SDSC-BLU,learning_offline_6,3.309,875.115
48,SDSC-BLU,learning_offline_6,5.885,1112.786
49,SDSC-BLU,learning_offline_6,1.209,48.392
50,SDSC-BLU,learning_offline_6,2.047,276.767
51,SDSC-BLU,learning_offline_6,1.879,414.647
52,SDSC-BLU,learning_offline_6,2.355,295.503
53,SDSC-BLU,learning_offline_6,1.09,57.087
54,SDSC-BLU,learning_offline_6,1.041,20.016
55,SDSC-BLU,learning_offline_6,2.255,573.733
56,SDSC-BLU,learning_offline_6,1.962,421.083
57,SDSC-BLU,learning_offline_6,1.711,78.267
58,SDSC-BLU,learning_offline_6,2.054,132.778
59,SDSC-BLU,learning_offline_6,3.724,424.933
60,SDSC-BLU,learning_offline_6,1.615,201.368
61,SDSC-BLU,learning_offline_6,1.256,138.383
62,SDSC-BLU,learning_offline_6,2.913,431.833
63,SDSC-BLU,learning_offline_6,12.781,1385.711
63,SDSC-BLU,learning_offline_6,12.781,1385.711
64,SDSC-BLU,learning_offline_6,4.991,571.538
65,SDSC-BLU,learning_offline_6,4.851,1291.608
66,SDSC-BLU,learning_offline_6,1.827,294.329
67,SDSC-BLU,learning_offline_6,3.324,326.672
68,SDSC-BLU,learning_offline_6,2.978,403.083
69,SDSC-BLU,learning_offline_6,3.55,1796.794
70,SDSC-BLU,learning_offline_6,1.752,436.5
71,SDSC-BLU,learning_offline_6,2.881,681.423
72,SDSC-BLU,learning_offline_6,2.234,835.453
73,SDSC-BLU,learning_offline_6,4.856,1324.612
74,SDSC-BLU,learning_offline_6,1.962,138.094
75,SDSC-BLU,learning_offline_6,1.658,140.806
76,SDSC-BLU,learning_offline_6,2.27,121.417
77,SDSC-BLU,learning_offline_6,1.932,170.286
78,SDSC-BLU,learning_offline_6,1.756,318.7
79,SDSC-BLU,learning_offline_6,4.523,497.41
80,SDSC-BLU,learning_offline_6,1.561,147.633
81,SDSC-BLU,learning_offline_6,2.562,429.957
82,SDSC-BLU,learning_offline_6,7.18,4409.569
83,SDSC-BLU,learning_offline_6,2.451,1586.632
84,SDSC-BLU,learning_offline_6,3.649,536.583
85,SDSC-BLU,learning_offline_6,6.701,3502.632
86,SDSC-BLU,learning_offline_6,14.146,2965.631
87,SDSC-BLU,learning_offline_6,3.33,646.603
88,SDSC-BLU,learning_offline_6,1.712,258.204
89,SDSC-BLU,learning_offline_6,12.072,4005.1
90,SDSC-BLU,learning_offline_6,3.632,937.783
91,SDSC-BLU,learning_offline_6,1.293,96.922
92,SDSC-BLU,learning_offline_6,1.098,26.633
93,SDSC-BLU,learning_offline_6,11.491,3020.267
94,SDSC-BLU,learning_offline_6,4.712,3699.333
95,SDSC-BLU,learning_offline_6,2.643,475.633
96,SDSC-BLU,learning_offline_6,6.895,1058.883
97,SDSC-BLU,learning_offline_6,4.241,431.502
98,SDSC-BLU,learning_offline_6,4.204,1375.196
99,SDSC-BLU,learning_offline_6,4.108,869.2
100,SDSC-BLU,learning_offline_6,9.639,855.4
1,SDSC-BLU,xnes_dynamic_clairvoyant_3,3.163,420.883
2,SDSC-BLU,xnes_dynamic_clairvoyant_3,2.109,161.323
3,SDSC-BLU,xnes_dynamic_clairvoyant_3,2.267,126.237
4,SDSC-BLU,xnes_dynamic_clairvoyant_3,3.076,737.6
5,SDSC-BLU,xnes_dynamic_clairvoyant_3,2.397,640.905
6,SDSC-BLU,xnes_dynamic_clairvoyant_3,1.477,79.933
7,SDSC-BLU,xnes_dynamic_clairvoyant_3,1.062,59.786
8,SDSC-BLU,xnes_dynamic_clairvoyant_3,1.19,68.946
9,SDSC-BLU,xnes_dynamic_clairvoyant_3,2.219,169.59
10,SDSC-BLU,xnes_dynamic_clairvoyant_3,2.453,243.783
11,SDSC-BLU,xnes_dynamic_clairvoyant_3,1.874,249.085
12,SDSC-BLU,xnes_dynamic_clairvoyant_3,1.568,222.197
13,SDSC-BLU,xnes_dynamic_clairvoyant_3,2.12,240.434
14,SDSC-BLU,xnes_dynamic_clairvoyant_3,1.94,166.418
15,SDSC-BLU,xnes_dynamic_clairvoyant_3,1.469,53.851
16,SDSC-BLU,xnes_dynamic_clairvoyant_3,1.129,58.343
17,SDSC-BLU,xnes_dynamic_clairvoyant_3,1.757,149.189
18,SDSC-BLU,xnes_dynamic_clairvoyant_3,1.905,140.354
19,SDSC-BLU,xnes_dynamic_clairvoyant_3,1.494,105.384
20,SDSC-BLU,xnes_dynamic_clairvoyant_3,1.196,32.658
21,SDSC-BLU,xnes_dynamic_clairvoyant_3,2.211,175.714
22,SDSC-BLU,xnes_dynamic_clairvoyant_3,3.405,739.046
23,SDSC-BLU,xnes_dynamic_clairvoyant_3,2.889,493.984
24,SDSC-BLU,xnes_dynamic_clairvoyant_3,2.644,684.791
25,SDSC-BLU,xnes_dynamic_clairvoyant_3,2.095,106.48
26,SDSC-BLU,xnes_dynamic_clairvoyant_3,3.159,283.0
27,SDSC-BLU,xnes_dynamic_clairvoyant_3,2.33,183.329
28,SDSC-BLU,xnes_dynamic_clairvoyant_3,3.445,90.282
29,SDSC-BLU,xnes_dynamic_clairvoyant_3,1.83,90.446
30,SDSC-BLU,xnes_dynamic_clairvoyant_3,1.103,49.363
31,SDSC-BLU,xnes_dynamic_clairvoyant_3,2.817,103.809
32,SDSC-BLU,xnes_dynamic_clairvoyant_3,2.771,277.75
33,SDSC-BLU,xnes_dynamic_clairvoyant_3,1.234,20.097
34,SDSC-BLU,xnes_dynamic_clairvoyant_3,1.6,144.11
35,SDSC-BLU,xnes_dynamic_clairvoyant_3,1.22,61.592
36,SDSC-BLU,xnes_dynamic_clairvoyant_3,3.796,492.216
37,SDSC-BLU,xnes_dynamic_clairvoyant_3,1.328,98.983
38,SDSC-BLU,xnes_dynamic_clairvoyant_3,4.271,328.151
39,SDSC-BLU,xnes_dynamic_clairvoyant_3,5.475,885.589
40,SDSC-BLU,xnes_dynamic_clairvoyant_3,1.427,158.333
41,SDSC-BLU,xnes_dynamic_clairvoyant_3,1.499,404.448
42,SDSC-BLU,xnes_dynamic_clairvoyant_3,1.539,264.351
43,SDSC-BLU,xnes_dynamic_clairvoyant_3,1.435,81.483
44,SDSC-BLU,xnes_dynamic_clairvoyant_3,2.353,406.41
45,SDSC-BLU,xnes_dynamic_clairvoyant_3,1.468,39.4
46,SDSC-BLU,xnes_dynamic_clairvoyant_3,4.022,1527.941
47,SDSC-BLU,xnes_dynamic_clairvoyant_3,3.021,492.077
48,SDSC-BLU,xnes_dynamic_clairvoyant_3,4.292,596.845
49,SDSC-BLU,xnes_dynamic_clairvoyant_3,1.196,61.849
50,SDSC-BLU,xnes_dynamic_clairvoyant_3,1.714,174.233
51,SDSC-BLU,xnes_dynamic_clairvoyant_3,1.522,217.329
52,SDSC-BLU,xnes_dynamic_clairvoyant_3,2.035,119.95
53,SDSC-BLU,xnes_dynamic_clairvoyant_3,1.088,57.087
54,SDSC-BLU,xnes_dynamic_clairvoyant_3,1.041,20.016
55,SDSC-BLU,xnes_dynamic_clairvoyant_3,1.866,381.017
56,SDSC-BLU,xnes_dynamic_clairvoyant_3,1.572,261.483
57,SDSC-BLU,xnes_dynamic_clairvoyant_3,1.537,95.883
58,SDSC-BLU,xnes_dynamic_clairvoyant_3,1.773,53.795
59,SDSC-BLU,xnes_dynamic_clairvoyant_3,3.4,412.317
60,SDSC-BLU,xnes_dynamic_clairvoyant_3,1.677,224.865
61,SDSC-BLU,xnes_dynamic_clairvoyant_3,1.218,138.383
62,SDSC-BLU,xnes_dynamic_clairvoyant_3,2.658,317.766
63,SDSC-BLU,xnes_dynamic_clairvoyant_3,10.91,1385.711
64,SDSC-BLU,xnes_dynamic_clairvoyant_3,3.652,685.0
65,SDSC-BLU,xnes_dynamic_clairvoyant_3,2.985,683.743
66,SDSC-BLU,xnes_dynamic_clairvoyant_3,1.691,115.729
67,SDSC-BLU,xnes_dynamic_clairvoyant_3,2.863,316.194
68,SDSC-BLU,xnes_dynamic_clairvoyant_3,2.62,403.083
69,SDSC-BLU,xnes_dynamic_clairvoyant_3,3.212,1664.476
70,SDSC-BLU,xnes_dynamic_clairvoyant_3,1.581,436.5
71,SDSC-BLU,xnes_dynamic_clairvoyant_3,2.723,724.606
72,SDSC-BLU,xnes_dynamic_clairvoyant_3,1.897,633.68
73,SDSC-BLU,xnes_dynamic_clairvoyant_3,3.561,693.4
74,SDSC-BLU,xnes_dynamic_clairvoyant_3,1.457,91.808
75,SDSC-BLU,xnes_dynamic_clairvoyant_3,1.343,88.348
76,SDSC-BLU,xnes_dynamic_clairvoyant_3,1.986,114.027
77,SDSC-BLU,xnes_dynamic_clairvoyant_3,1.844,170.286
78,SDSC-BLU,xnes_dynamic_clairvoyant_3,1.539,159.739
79,SDSC-BLU,xnes_dynamic_clairvoyant_3,2.84,497.41
80,SDSC-BLU,xnes_dynamic_clairvoyant_3,1.412,140.167
81,SDSC-BLU,xnes_dynamic_clairvoyant_3,2.123,418.0
82,SDSC-BLU,xnes_dynamic_clairvoyant_3,4.038,1015.0
83,SDSC-BLU,xnes_dynamic_clairvoyant_3,2.347,1586.632
84,SDSC-BLU,xnes_dynamic_clairvoyant_3,2.349,527.65
85,SDSC-BLU,xnes_dynamic_clairvoyant_3,1.664,97.057
86,SDSC-BLU,xnes_dynamic_clairvoyant_3,2.846,499.242
87,SDSC-BLU,xnes_dynamic_clairvoyant_3,1.883,352.887
88,SDSC-BLU,xnes_dynamic_clairvoyant_3,1.415,81.989
89,SDSC-BLU,xnes_dynamic_clairvoyant_3,6.085,2988.75
90,SDSC-BLU,xnes_dynamic_clairvoyant_3,1.676,178.459
91,SDSC-BLU,xnes_dynamic_clairvoyant_3,1.217,77.137
92,SDSC-BLU,xnes_dynamic_clairvoyant_3,1.062,15.148
93,SDSC-BLU,xnes_dynamic_clairvoyant_3,6.933,1069.397
94,SDSC-BLU,xnes_dynamic_clairvoyant_3,3.354,1912.45
95,SDSC-BLU,xnes_dynamic_clairvoyant_3,2.511,474.967
96,SDSC-BLU,xnes_dynamic_clairvoyant_3,2.714,325.434
97,SDSC-BLU,xnes_dynamic_clairvoyant_3,2.247,179.95
98,SDSC-BLU,xnes_dynamic_clairvoyant_3,3.974,1179.723
99,SDSC-BLU,xnes_dynamic_clairvoyant_3,3.238,869.2
100,SDSC-BLU,xnes_dynamic_clairvoyant_3,5.893,316.817
1,SDSC-BLU,learning_offline_3,3.982,412.85
2,SDSC-BLU,learning_offline_3,2.266,179.97
3,SDSC-BLU,learning_offline_3,3.023,295.52
4,SDSC-BLU,learning_offline_3,4.075,784.2
5,SDSC-BLU,learning_offline_3,3.257,599.116
6,SDSC-BLU,learning_offline_3,1.859,98.1
7,SDSC-BLU,learning_offline_3,1.062,59.786
8,SDSC-BLU,learning_offline_3,1.282,146.533
9,SDSC-BLU,learning_offline_3,2.953,374.55
10,SDSC-BLU,learning_offline_3,2.565,241.183
11,SDSC-BLU,learning_offline_3,2.136,121.65
12,SDSC-BLU,learning_offline_3,2.08,345.086
13,SDSC-BLU,learning_offline_3,3.796,1702.157
14,SDSC-BLU,learning_offline_3,2.036,166.418
15,SDSC-BLU,learning_offline_3,2.404,136.5
16,SDSC-BLU,learning_offline_3,1.129,58.343
17,SDSC-BLU,learning_offline_3,1.956,137.378
18,SDSC-BLU,learning_offline_3,1.973,147.091
19,SDSC-BLU,learning_offline_3,2.157,178.46
20,SDSC-BLU,learning_offline_3,1.304,57.278
21,SDSC-BLU,learning_offline_3,2.53,175.714
22,SDSC-BLU,learning_offline_3,3.201,314.512
23,SDSC-BLU,learning_offline_3,3.066,592.469
24,SDSC-BLU,learning_offline_3,2.972,758.165
25,SDSC-BLU,learning_offline_3,3.366,207.809
26,SDSC-BLU,learning_offline_3,4.287,283.0
27,SDSC-BLU,learning_offline_3,3.159,183.329
28,SDSC-BLU,learning_offline_3,3.956,78.806
29,SDSC-BLU,learning_offline_3,1.936,102.218
30,SDSC-BLU,learning_offline_3,1.123,48.312
31,SDSC-BLU,learning_offline_3,3.389,194.876
32,SDSC-BLU,learning_offline_3,2.85,277.75
33,SDSC-BLU,learning_offline_3,1.244,20.097
34,SDSC-BLU,learning_offline_3,1.8,144.11
35,SDSC-BLU,learning_offline_3,1.22,61.592
36,SDSC-BLU,learning_offline_3,3.94,515.176
37,SDSC-BLU,learning_offline_3,1.355,100.367
38,SDSC-BLU,learning_offline_3,4.365,328.151
39,SDSC-BLU,learning_offline_3,6.109,885.589
40,SDSC-BLU,learning_offline_3,1.656,158.333
41,SDSC-BLU,learning_offline_3,2.655,1850.816
42,SDSC-BLU,learning_offline_3,1.559,270.321
43,SDSC-BLU,learning_offline_3,1.502,82.833
44,SDSC-BLU,learning_offline_3,3.529,989.525
45,SDSC-BLU,learning_offline_3,1.603,130.568
46,SDSC-BLU,learning_offline_3,5.425,1337.824
47,SDSC-BLU,learning_offline_3,3.309,875.115
48,SDSC-BLU,learning_offline_3,5.885,1112.786
49,SDSC-BLU,learning_offline_3,1.209,48.392
50,SDSC-BLU,learning_offline_3,2.047,276.767
51,SDSC-BLU,learning_offline_3,1.879,414.647
52,SDSC-BLU,learning_offline_3,2.355,295.503
53,SDSC-BLU,learning_offline_3,1.09,57.087
54,SDSC-BLU,learning_offline_3,1.041,20.016
55,SDSC-BLU,learning_offline_3,2.255,573.733
56,SDSC-BLU,learning_offline_3,1.962,421.083
57,SDSC-BLU,learning_offline_3,1.711,78.267
58,SDSC-BLU,learning_offline_3,2.051,132.778
59,SDSC-BLU,learning_offline_3,3.724,424.933
60,SDSC-BLU,learning_offline_3,1.615,201.368
61,SDSC-BLU,learning_offline_3,1.256,138.383
62,SDSC-BLU,learning_offline_3,2.917,431.833
63,SDSC-BLU,learning_offline_3,12.781,1385.711
64,SDSC-BLU,learning_offline_3,4.991,571.538
65,SDSC-BLU,learning_offline_3,4.851,1291.608
66,SDSC-BLU,learning_offline_3,1.827,294.329
67,SDSC-BLU,learning_offline_3,3.324,326.672
68,SDSC-BLU,learning_offline_3,2.978,403.083
69,SDSC-BLU,learning_offline_3,3.566,1796.794
70,SDSC-BLU,learning_offline_3,1.752,436.5
71,SDSC-BLU,learning_offline_3,2.881,681.423
72,SDSC-BLU,learning_offline_3,2.234,835.453
73,SDSC-BLU,learning_offline_3,4.915,1325.688
74,SDSC-BLU,learning_offline_3,1.962,138.094
75,SDSC-BLU,learning_offline_3,1.658,140.806
76,SDSC-BLU,learning_offline_3,2.27,121.417
77,SDSC-BLU,learning_offline_3,1.932,170.286
78,SDSC-BLU,learning_offline_3,1.756,318.7
79,SDSC-BLU,learning_offline_3,4.523,497.41
80,SDSC-BLU,learning_offline_3,1.561,147.633
81,SDSC-BLU,learning_offline_3,2.562,429.957
82,SDSC-BLU,learning_offline_3,7.18,4409.569
83,SDSC-BLU,learning_offline_3,2.434,1586.632
84,SDSC-BLU,learning_offline_3,3.649,536.583
85,SDSC-BLU,learning_offline_3,6.701,3502.632
86,SDSC-BLU,learning_offline_3,14.146,2965.631
87,SDSC-BLU,learning_offline_3,3.33,646.603
88,SDSC-BLU,learning_offline_3,1.712,258.204
89,SDSC-BLU,learning_offline_3,12.178,4005.1
90,SDSC-BLU,learning_offline_3,3.632,937.783
91,SDSC-BLU,learning_offline_3,1.293,96.922
92,SDSC-BLU,learning_offline_3,1.098,26.633
93,SDSC-BLU,learning_offline_3,11.494,3020.267
94,SDSC-BLU,learning_offline_3,4.712,3699.333
95,SDSC-BLU,learning_offline_3,2.643,475.633
96,SDSC-BLU,learning_offline_3,6.895,1058.883
97,SDSC-BLU,learning_offline_3,4.241,431.502
98,SDSC-BLU,learning_offline_3,4.204,1375.196
99,SDSC-BLU,learning_offline_3,4.108,869.2
100,SDSC-BLU,learning_offline_3,8.778,855.4
1,SDSC-BLU,past_week_3,3.41,280.911
2,SDSC-BLU,past_week_3,2.41,280.911
3,SDSC-BLU,past_week_3,2.904,880.652
4,SDSC-BLU,past_week_3,4.571,786.8
5,SDSC-BLU,past_week_3,3.613,1890.662
6,SDSC-BLU,past_week_3,2.126,112.056
7,SDSC-BLU,past_week_3,1.059,59.786
8,SDSC-BLU,past_week_3,1.323,150.45
9,SDSC-BLU,past_week_3,2.627,192.148
10,SDSC-BLU,past_week_3,5.236,552.4
11,SDSC-BLU,past_week_3,2.158,352.713
12,SDSC-BLU,past_week_3,3.57,396.678
13,SDSC-BLU,past_week_3,3.834,1251.8
14,SDSC-BLU,past_week_3,3.096,306.583
15,SDSC-BLU,past_week_3,2.16,136.5
16,SDSC-BLU,past_week_3,1.129,58.343
17,SDSC-BLU,past_week_3,2.365,133.164
18,SDSC-BLU,past_week_3,2.433,138.242
19,SDSC-BLU,past_week_3,1.565,128.527
20,SDSC-BLU,past_week_3,1.646,257.116
21,SDSC-BLU,past_week_3,4.181,448.838
22,SDSC-BLU,past_week_3,5.889,1754.569
23,SDSC-BLU,past_week_3,2.953,652.797
24,SDSC-BLU,past_week_3,4.074,773.044
25,SDSC-BLU,past_week_3,3.834,313.4
26,SDSC-BLU,past_week_3,10.534,1297.273
27,SDSC-BLU,past_week_3,3.165,183.329
28,SDSC-BLU,past_week_3,3.811,74.122
29,SDSC-BLU,past_week_3,3.364,1207.607
30,SDSC-BLU,past_week_3,1.152,72.83
31,SDSC-BLU,past_week_3,4.964,148.865
32,SDSC-BLU,past_week_3,3.138,277.75
33,SDSC-BLU,past_week_3,1.244,20.097
34,SDSC-BLU,past_week_3,1.688,168.305
35,SDSC-BLU,past_week_3,1.31,120.49
36,SDSC-BLU,past_week_3,4.764,561.551
37,SDSC-BLU,past_week_3,1.348,98.983
38,SDSC-BLU,past_week_3,6.108,563.534
39,SDSC-BLU,past_week_3,6.64,771.316
40,SDSC-BLU,past_week_3,1.64,158.333
41,SDSC-BLU,past_week_3,2.928,2515.176
42,SDSC-BLU,past_week_3,1.555,264.351
43,SDSC-BLU,past_week_3,1.436,81.583
44,SDSC-BLU,past_week_3,4.222,1449.148
45,SDSC-BLU,past_week_3,3.892,142.783
46,SDSC-BLU,past_week_3,4.773,697.0
47,SDSC-BLU,past_week_3,4.949,521.41
48,SDSC-BLU,past_week_3,5.268,444.354
49,SDSC-BLU,past_week_3,1.249,48.392
50,SDSC-BLU,past_week_3,2.241,276.767
51,SDSC-BLU,past_week_3,1.822,413.616
52,SDSC-BLU,past_week_3,4.98,962.533
53,SDSC-BLU,past_week_3,1.086,57.087
54,SDSC-BLU,past_week_3,1.124,148.778
55,SDSC-BLU,past_week_3,8.378,548.867
56,SDSC-BLU,past_week_3,2.737,1853.4
57,SDSC-BLU,past_week_3,1.606,104.887
58,SDSC-BLU,past_week_3,2.094,80.915
59,SDSC-BLU,past_week_3,3.977,672.829
60,SDSC-BLU,past_week_3,1.846,264.378
61,SDSC-BLU,past_week_3,1.388,70.117
62,SDSC-BLU,past_week_3,4.231,369.95
63,SDSC-BLU,past_week_3,12.701,1385.711
64,SDSC-BLU,past_week_3,4.189,470.031
65,SDSC-BLU,past_week_3,5.841,1530.5
66,SDSC-BLU,past_week_3,2.141,315.2
67,SDSC-BLU,past_week_3,3.599,328.761
68,SDSC-BLU,past_week_3,2.841,401.633
69,SDSC-BLU,past_week_3,3.594,1619.175
70,SDSC-BLU,past_week_3,2.728,1325.759
71,SDSC-BLU,past_week_3,2.901,681.423
72,SDSC-BLU,past_week_3,1.897,633.68
73,SDSC-BLU,past_week_3,5.376,1215.088
74,SDSC-BLU,past_week_3,1.846,97.953
75,SDSC-BLU,past_week_3,1.467,89.797
76,SDSC-BLU,past_week_3,3.608,330.205
77,SDSC-BLU,past_week_3,1.929,168.143
78,SDSC-BLU,past_week_3,1.732,318.7
79,SDSC-BLU,past_week_3,4.963,1403.37
80,SDSC-BLU,past_week_3,1.569,147.867
81,SDSC-BLU,past_week_3,3.855,892.25
82,SDSC-BLU,past_week_3,7.014,2873.692
83,SDSC-BLU,past_week_3,8.714,408.721
84,SDSC-BLU,past_week_3,3.466,539.167
85,SDSC-BLU,past_week_3,2.825,435.383
86,SDSC-BLU,past_week_3,7.423,631.55
87,SDSC-BLU,past_week_3,3.146,838.075
88,SDSC-BLU,past_week_3,1.686,214.452
89,SDSC-BLU,past_week_3,20.009,2131.267
90,SDSC-BLU,past_week_3,3.679,937.783
91,SDSC-BLU,past_week_3,1.281,82.343
92,SDSC-BLU,past_week_3,1.12,30.517
93,SDSC-BLU,past_week_3,11.174,1768.233
94,SDSC-BLU,past_week_3,6.677,2357.536
95,SDSC-BLU,past_week_3,3.518,547.445
96,SDSC-BLU,past_week_3,4.445,224.124
97,SDSC-BLU,past_week_3,10.122,951.5
98,SDSC-BLU,past_week_3,4.205,1375.196
99,SDSC-BLU,past_week_3,6.426,869.2
100,SDSC-BLU,past_week_3,8.282,834.233




