\relax 
\providecommand\hyper@newdestlabel[2]{}
\providecommand\HyperFirstAtBeginDocument{\AtBeginDocument}
\HyperFirstAtBeginDocument{\ifx\hyper@anchor\@undefined
\global\let\oldcontentsline\contentsline
\gdef\contentsline#1#2#3#4{\oldcontentsline{#1}{#2}{#3}}
\global\let\oldnewlabel\newlabel
\gdef\newlabel#1#2{\newlabelxx{#1}#2}
\gdef\newlabelxx#1#2#3#4#5#6{\oldnewlabel{#1}{{#2}{#3}}}
\AtEndDocument{\ifx\hyper@anchor\@undefined
\let\contentsline\oldcontentsline
\let\newlabel\oldnewlabel
\fi}
\fi}
\global\let\hyper@last\relax 
\gdef\HyperFirstAtBeginDocument#1{#1}
\providecommand\HyField@AuxAddToFields[1]{}
\providecommand\HyField@AuxAddToCoFields[2]{}
\@writefile{toc}{\beamer@endinputifotherversion {3.36pt}}
\@writefile{nav}{\beamer@endinputifotherversion {3.36pt}}
\@writefile{nav}{\headcommand {\slideentry {0}{0}{1}{1/1}{}{0}}}
\@writefile{nav}{\headcommand {\beamer@framepages {1}{1}}}
\@writefile{nav}{\headcommand {\slideentry {0}{0}{2}{2/2}{}{0}}}
\@writefile{nav}{\headcommand {\beamer@framepages {2}{2}}}
\@writefile{toc}{\beamer@sectionintoc {1}{Online scheduling}{3}{0}{1}}
\@writefile{nav}{\headcommand {\sectionentry {1}{Online scheduling}{3}{Online scheduling}{0}}}
\@writefile{nav}{\headcommand {\beamer@sectionpages {1}{2}}}
\@writefile{nav}{\headcommand {\beamer@subsectionpages {1}{2}}}
\@writefile{nav}{\headcommand {\slideentry {1}{0}{1}{3/3}{}{0}}}
\@writefile{nav}{\headcommand {\beamer@framepages {3}{3}}}
\@writefile{nav}{\headcommand {\slideentry {1}{0}{2}{4/4}{}{0}}}
\@writefile{nav}{\headcommand {\beamer@framepages {4}{4}}}
\@writefile{snm}{\beamer@slide {eq:bsld}{5}}
\newlabel{eq:bsld}{{1}{5}{Online scheduling}{Doc-Start}{}}
\@writefile{snm}{\beamer@slide {eq:avg_bsld}{5}}
\newlabel{eq:avg_bsld}{{2}{5}{Online scheduling}{Doc-Start}{}}
\@writefile{nav}{\headcommand {\slideentry {1}{0}{3}{5/5}{}{0}}}
\@writefile{nav}{\headcommand {\beamer@framepages {5}{5}}}
\@writefile{toc}{\beamer@sectionintoc {2}{Mixed policies}{6}{0}{2}}
\@writefile{nav}{\headcommand {\sectionentry {2}{Mixed policies}{6}{Mixed policies}{0}}}
\@writefile{nav}{\headcommand {\beamer@sectionpages {3}{5}}}
\@writefile{nav}{\headcommand {\beamer@subsectionpages {3}{5}}}
\@writefile{nav}{\headcommand {\slideentry {2}{0}{1}{6/6}{}{0}}}
\@writefile{nav}{\headcommand {\beamer@framepages {6}{6}}}
\@writefile{nav}{\headcommand {\slideentry {2}{0}{2}{7/7}{}{0}}}
\@writefile{nav}{\headcommand {\beamer@framepages {7}{7}}}
\@writefile{snm}{\beamer@slide {eq:1}{8}}
\newlabel{eq:1}{{3}{8}{Mixed policies}{Doc-Start}{}}
\@writefile{nav}{\headcommand {\slideentry {2}{0}{3}{8/9}{}{0}}}
\@writefile{nav}{\headcommand {\beamer@framepages {8}{9}}}
\@writefile{nav}{\headcommand {\slideentry {2}{0}{4}{10/10}{}{0}}}
\@writefile{nav}{\headcommand {\beamer@framepages {10}{10}}}
\@writefile{toc}{\beamer@sectionintoc {3}{Experimental results}{11}{0}{3}}
\@writefile{nav}{\headcommand {\sectionentry {3}{Experimental results}{11}{Experimental results}{0}}}
\@writefile{nav}{\headcommand {\beamer@sectionpages {6}{10}}}
\@writefile{nav}{\headcommand {\beamer@subsectionpages {6}{10}}}
\@writefile{nav}{\headcommand {\slideentry {3}{0}{1}{11/11}{}{0}}}
\@writefile{nav}{\headcommand {\beamer@framepages {11}{11}}}
\@writefile{nav}{\headcommand {\slideentry {3}{0}{2}{12/13}{}{0}}}
\@writefile{nav}{\headcommand {\beamer@framepages {12}{13}}}
\@writefile{nav}{\headcommand {\slideentry {3}{0}{3}{14/15}{}{0}}}
\@writefile{nav}{\headcommand {\beamer@framepages {14}{15}}}
\@writefile{nav}{\headcommand {\slideentry {3}{0}{4}{16/17}{}{0}}}
\@writefile{nav}{\headcommand {\beamer@framepages {16}{17}}}
\@writefile{nav}{\headcommand {\slideentry {3}{0}{5}{18/21}{}{0}}}
\@writefile{nav}{\headcommand {\beamer@framepages {18}{21}}}
\@writefile{nav}{\headcommand {\sectionentry {4}{Conclusion}{22}{Conclusion}{0}}}
\@writefile{nav}{\headcommand {\beamer@sectionpages {11}{21}}}
\@writefile{nav}{\headcommand {\beamer@subsectionpages {11}{21}}}
\@writefile{nav}{\headcommand {\slideentry {4}{0}{1}{22/22}{}{0}}}
\@writefile{nav}{\headcommand {\beamer@framepages {22}{22}}}
\@writefile{nav}{\headcommand {\slideentry {4}{0}{2}{23/23}{}{0}}}
\@writefile{nav}{\headcommand {\beamer@framepages {23}{23}}}
\@writefile{nav}{\headcommand {\slideentry {4}{0}{3}{24/27}{}{0}}}
\@writefile{nav}{\headcommand {\beamer@framepages {24}{27}}}
\providecommand*\caption@xref[2]{\@setref\relax\@undefined{#1}}
\newlabel{SDSC-SP2}{{\caption@xref {SDSC-SP2}{ on input line 525}}{28}{Conclusion}{Doc-Start}{}}
\@writefile{snm}{\beamer@slide {SDSC-SP2}{28}}
\newlabel{SDSC-BLUE}{{\caption@xref {SDSC-BLUE}{ on input line 525}}{28}{Conclusion}{Doc-Start}{}}
\@writefile{snm}{\beamer@slide {SDSC-BLUE}{28}}
\newlabel{CTC-SP2}{{\caption@xref {CTC-SP2}{ on input line 525}}{28}{Conclusion}{Doc-Start}{}}
\@writefile{snm}{\beamer@slide {CTC-SP2}{28}}
\newlabel{KTH-SP2}{{\caption@xref {KTH-SP2}{ on input line 525}}{28}{Conclusion}{Doc-Start}{}}
\@writefile{snm}{\beamer@slide {KTH-SP2}{28}}
\newlabel{fig:box_plot_compare}{{\caption@xref {fig:box_plot_compare}{ on input line 525}}{28}{Conclusion}{Doc-Start}{}}
\@writefile{snm}{\beamer@slide {fig:box_plot_compare}{28}}
\@writefile{nav}{\headcommand {\slideentry {4}{0}{4}{28/28}{}{0}}}
\@writefile{nav}{\headcommand {\beamer@framepages {28}{28}}}
\@writefile{nav}{\headcommand {\slideentry {4}{0}{5}{29/29}{}{0}}}
\@writefile{nav}{\headcommand {\beamer@framepages {29}{29}}}
\@writefile{nav}{\headcommand {\beamer@partpages {1}{29}}}
\@writefile{nav}{\headcommand {\beamer@subsectionpages {22}{29}}}
\@writefile{nav}{\headcommand {\beamer@sectionpages {22}{29}}}
\@writefile{nav}{\headcommand {\beamer@documentpages {29}}}
\@writefile{nav}{\headcommand {\def \inserttotalframenumber {14}}}
