\beamer@endinputifotherversion {3.36pt}
\beamer@sectionintoc {1}{Online scheduling}{3}{0}{1}
\beamer@sectionintoc {2}{Mixed policies}{6}{0}{2}
\beamer@sectionintoc {3}{Experimental results}{11}{0}{3}
