\BOOKMARK [1][-]{section.1}{Introduction}{}% 1
\BOOKMARK [1][-]{section.2}{Context}{}% 2
\BOOKMARK [2][-]{subsection.2.1}{Jobs}{section.2}% 3
\BOOKMARK [2][-]{subsection.2.2}{Scheduling heuristic: EASY-backfilling}{section.2}% 4
\BOOKMARK [2][-]{subsection.2.3}{Metric}{section.2}% 5
\BOOKMARK [1][-]{section.3}{Related work}{}% 6
\BOOKMARK [1][-]{section.4}{Index policies}{}% 7
\BOOKMARK [2][-]{subsection.4.1}{Job characteristics}{section.4}% 8
\BOOKMARK [2][-]{subsection.4.2}{Pure policies}{section.4}% 9
\BOOKMARK [2][-]{subsection.4.3}{Mixed policies}{section.4}% 10
\BOOKMARK [1][-]{section.5}{Experimental methodology}{}% 11
\BOOKMARK [2][-]{subsection.5.1}{ workload and platform}{section.5}% 12
\BOOKMARK [2][-]{subsection.5.2}{Starvation}{section.5}% 13
\BOOKMARK [1][-]{section.6}{Performance evaluation of pure policies}{}% 14
\BOOKMARK [2][-]{subsection.6.1}{Comparison}{section.6}% 15
\BOOKMARK [2][-]{subsection.6.2}{The one size fits all policy?}{section.6}% 16
\BOOKMARK [1][-]{section.7}{Scheduling using mixed policies}{}% 17
\BOOKMARK [2][-]{subsection.7.1}{Performance of pure and mixed policies}{section.7}% 18
\BOOKMARK [2][-]{subsection.7.2}{Learning: scheduling using best combination learned from a previous part of the trace.}{section.7}% 19
\BOOKMARK [3][-]{table.2}{Learning over a long period of time}{subsection.7.2}% 20
\BOOKMARK [3][-]{subsubsection.7.2.2}{Learning over a short period of time}{subsection.7.2}% 21
\BOOKMARK [2][-]{subsection.7.3}{Exploring the search space}{section.7}% 22
\BOOKMARK [1][-]{section.8}{Increasing the size of the search space: using more jobs characteristics }{}% 23
\BOOKMARK [2][-]{subsection.8.1}{Black-box optimizers: a quick way to find the optimal}{section.8}% 24
\BOOKMARK [3][-]{subsubsection.8.1.1}{Algorithm}{subsection.8.1}% 25
\BOOKMARK [3][-]{subsubsection.8.1.2}{Performance}{subsection.8.1}% 26
\BOOKMARK [1][-]{section.9}{Conclusion }{}% 27
\BOOKMARK [1][-]{section.10}{Acknowledgment}{}% 28
\BOOKMARK [1][-]{section*.1}{References}{}% 29
